
DisplayName "Forest of Spirits"



EVENT   1
 PAGE   1
  0()



EVENT   2
 PAGE   1
  0()



EVENT   3
 PAGE   1
  0()



EVENT   4
 PAGE   1
  0()



EVENT   5
 PAGE   1
  0()



EVENT   6
 PAGE   1
  0()



EVENT   7
 PAGE   1
  0()



EVENT   8
 PAGE   1
  0()



EVENT   9
 PAGE   1
  0()



EVENT   10
 PAGE   1
  0()



EVENT   11
 PAGE   1
  0()



EVENT   12
 PAGE   1
  0()



EVENT   13
 PAGE   1
  0()



EVENT   14
 PAGE   1
  0()



EVENT   15
 PAGE   1
  0()



EVENT   16
 PAGE   1
  0()



EVENT   17
 PAGE   1
  0()



EVENT   18
 PAGE   1
  0()



EVENT   19
 PAGE   1
  0()



EVENT   20
 PAGE   1
  0()



EVENT   21
 PAGE   1
  0()



EVENT   22
 PAGE   1
  0()



EVENT   23
 PAGE   1
  0()



EVENT   24
 PAGE   1
  0()



EVENT   25
 PAGE   1
  0()



EVENT   26
 PAGE   1
  0()



EVENT   27
 PAGE   1
  0()



EVENT   28
 PAGE   1
  0()



EVENT   29
 PAGE   1
  0()



EVENT   30
 PAGE   1
  0()



EVENT   31
 PAGE   1
  0()



EVENT   32
 PAGE   1
  0()



EVENT   33
 PAGE   1
  0()



EVENT   34
 PAGE   1
  0()



EVENT   35
 PAGE   1
  0()



EVENT   36
 PAGE   1
  0()



EVENT   37
 PAGE   1
  0()



EVENT   38
 PAGE   1
  0()



EVENT   39
 PAGE   1
  250(bytes(0x04,0x08,0x6f,0x3a,0x0c,0x52,0x50,0x47,0x3a,0x3a,0x53,0x45,0x08,0x3a,0x0a,0x40,0x6e,0x61,0x6d,0x65,0x49,0x22,0x09,0x4d,0x6f,0x76,0x65,0x06,0x3a,0x06,0x45,0x54,0x3a,0x0b,0x40,0x70,0x69,0x74,0x63,0x68,0x69,0x69,0x3a,0x0c,0x40,0x76,0x6f,0x6c,0x75,0x6d,0x65,0x69,0x55))
  TeleportPlayer(0,2,202,235,0,0)
  0()



EVENT   40
 PAGE   1
  250(bytes(0x04,0x08,0x6f,0x3a,0x0c,0x52,0x50,0x47,0x3a,0x3a,0x53,0x45,0x08,0x3a,0x0a,0x40,0x6e,0x61,0x6d,0x65,0x49,0x22,0x09,0x4d,0x6f,0x76,0x65,0x06,0x3a,0x06,0x45,0x54,0x3a,0x0b,0x40,0x70,0x69,0x74,0x63,0x68,0x69,0x69,0x3a,0x0c,0x40,0x76,0x6f,0x6c,0x75,0x6d,0x65,0x69,0x55))
  TeleportPlayer(0,2,202,235,0,0)
  0()



EVENT   41
 PAGE   1
  250(bytes(0x04,0x08,0x6f,0x3a,0x0c,0x52,0x50,0x47,0x3a,0x3a,0x53,0x45,0x08,0x3a,0x0a,0x40,0x6e,0x61,0x6d,0x65,0x49,0x22,0x09,0x4d,0x6f,0x76,0x65,0x06,0x3a,0x06,0x45,0x54,0x3a,0x0b,0x40,0x70,0x69,0x74,0x63,0x68,0x69,0x69,0x3a,0x0c,0x40,0x76,0x6f,0x6c,0x75,0x6d,0x65,0x69,0x55))
  TeleportPlayer(0,2,202,235,0,0)
  0()



EVENT   42
 PAGE   1
  250(bytes(0x04,0x08,0x6f,0x3a,0x0c,0x52,0x50,0x47,0x3a,0x3a,0x53,0x45,0x08,0x3a,0x0a,0x40,0x6e,0x61,0x6d,0x65,0x49,0x22,0x09,0x4d,0x6f,0x76,0x65,0x06,0x3a,0x06,0x45,0x54,0x3a,0x0b,0x40,0x70,0x69,0x74,0x63,0x68,0x69,0x69,0x3a,0x0c,0x40,0x76,0x6f,0x6c,0x75,0x6d,0x65,0x69,0x55))
  TeleportPlayer(0,2,202,235,0,0)
  0()



EVENT   43
 PAGE   1
  250(bytes(0x04,0x08,0x6f,0x3a,0x0c,0x52,0x50,0x47,0x3a,0x3a,0x53,0x45,0x08,0x3a,0x0a,0x40,0x6e,0x61,0x6d,0x65,0x49,0x22,0x09,0x4d,0x6f,0x76,0x65,0x06,0x3a,0x06,0x45,0x54,0x3a,0x0b,0x40,0x70,0x69,0x74,0x63,0x68,0x69,0x69,0x3a,0x0c,0x40,0x76,0x6f,0x6c,0x75,0x6d,0x65,0x69,0x55))
  TeleportPlayer(0,2,202,235,0,0)
  0()



EVENT   44
 PAGE   1
  250(bytes(0x04,0x08,0x6f,0x3a,0x0c,0x52,0x50,0x47,0x3a,0x3a,0x53,0x45,0x08,0x3a,0x0a,0x40,0x6e,0x61,0x6d,0x65,0x49,0x22,0x09,0x4d,0x6f,0x76,0x65,0x06,0x3a,0x06,0x45,0x54,0x3a,0x0b,0x40,0x70,0x69,0x74,0x63,0x68,0x69,0x69,0x3a,0x0c,0x40,0x76,0x6f,0x6c,0x75,0x6d,0x65,0x69,0x55))
  TeleportPlayer(0,2,202,235,0,0)
  0()



EVENT   45
 PAGE   1
  250(bytes(0x04,0x08,0x6f,0x3a,0x0c,0x52,0x50,0x47,0x3a,0x3a,0x53,0x45,0x08,0x3a,0x0a,0x40,0x6e,0x61,0x6d,0x65,0x49,0x22,0x09,0x4d,0x6f,0x76,0x65,0x06,0x3a,0x06,0x45,0x54,0x3a,0x0b,0x40,0x70,0x69,0x74,0x63,0x68,0x69,0x69,0x3a,0x0c,0x40,0x76,0x6f,0x6c,0x75,0x6d,0x65,0x69,0x55))
  TeleportPlayer(0,2,202,235,0,0)
  0()



EVENT   46
 PAGE   1
  250(bytes(0x04,0x08,0x6f,0x3a,0x0c,0x52,0x50,0x47,0x3a,0x3a,0x53,0x45,0x08,0x3a,0x0a,0x40,0x6e,0x61,0x6d,0x65,0x49,0x22,0x09,0x4d,0x6f,0x76,0x65,0x06,0x3a,0x06,0x45,0x54,0x3a,0x0b,0x40,0x70,0x69,0x74,0x63,0x68,0x69,0x69,0x3a,0x0c,0x40,0x76,0x6f,0x6c,0x75,0x6d,0x65,0x69,0x55))
  TeleportPlayer(0,2,202,235,0,0)
  0()



EVENT   47
 PAGE   1
  250(bytes(0x04,0x08,0x6f,0x3a,0x0c,0x52,0x50,0x47,0x3a,0x3a,0x53,0x45,0x08,0x3a,0x0a,0x40,0x6e,0x61,0x6d,0x65,0x49,0x22,0x09,0x4d,0x6f,0x76,0x65,0x06,0x3a,0x06,0x45,0x54,0x3a,0x0b,0x40,0x70,0x69,0x74,0x63,0x68,0x69,0x69,0x3a,0x0c,0x40,0x76,0x6f,0x6c,0x75,0x6d,0x65,0x69,0x55))
  TeleportPlayer(0,2,202,235,0,0)
  0()



EVENT   48
 PAGE   1
  250(bytes(0x04,0x08,0x6f,0x3a,0x0c,0x52,0x50,0x47,0x3a,0x3a,0x53,0x45,0x08,0x3a,0x0a,0x40,0x6e,0x61,0x6d,0x65,0x49,0x22,0x09,0x4d,0x6f,0x76,0x65,0x06,0x3a,0x06,0x45,0x54,0x3a,0x0b,0x40,0x70,0x69,0x74,0x63,0x68,0x69,0x69,0x3a,0x0c,0x40,0x76,0x6f,0x6c,0x75,0x6d,0x65,0x69,0x55))
  TeleportPlayer(0,2,202,235,0,0)
  0()



EVENT   49
 PAGE   1
  250(bytes(0x04,0x08,0x6f,0x3a,0x0c,0x52,0x50,0x47,0x3a,0x3a,0x53,0x45,0x08,0x3a,0x0a,0x40,0x6e,0x61,0x6d,0x65,0x49,0x22,0x0a,0x43,0x68,0x65,0x73,0x74,0x06,0x3a,0x06,0x45,0x54,0x3a,0x0b,0x40,0x70,0x69,0x74,0x63,0x68,0x69,0x69,0x3a,0x0c,0x40,0x76,0x6f,0x6c,0x75,0x6d,0x65,0x69,0x55))
  205(0,bytes(0x04,0x08,0x6f,0x3a,0x13,0x52,0x50,0x47,0x3a,0x3a,0x4d,0x6f,0x76,0x65,0x52,0x6f,0x75,0x74,0x65,0x09,0x3a,0x0c,0x40,0x72,0x65,0x70,0x65,0x61,0x74,0x46,0x3a,0x0f,0x40,0x73,0x6b,0x69,0x70,0x70,0x61,0x62,0x6c,0x65,0x46,0x3a,0x0a,0x40,0x77,0x61,0x69,0x74,0x54,0x3a,0x0a,0x40,0x6c,0x69,0x73,0x74,0x5b,0x0b,0x6f,0x3a,0x15,0x52,0x50,0x47,0x3a,0x3a,0x4d,0x6f,0x76,0x65,0x43,0x6f,0x6d,0x6d,0x61,0x6e,0x64,0x07,0x3a,0x0a,0x40,0x63,0x6f,0x64,0x65,0x69,0x29,0x3a,0x10,0x40,0x70,0x61,0x72,0x61,0x6d,0x65,0x74,0x65,0x72,0x73,0x5b,0x00,0x6f,0x3b,0x0a,0x07,0x3b,0x0b,0x69,0x16,0x3b,0x0c,0x5b,0x00,0x6f,0x3b,0x0a,0x07,0x3b,0x0b,0x69,0x14,0x3b,0x0c,0x5b,0x06,0x69,0x08,0x6f,0x3b,0x0a,0x07,0x3b,0x0b,0x69,0x17,0x3b,0x0c,0x5b,0x00,0x6f,0x3b,0x0a,0x07,0x3b,0x0b,0x69,0x14,0x3b,0x0c,0x5b,0x06,0x69,0x08,0x6f,0x3b,0x0a,0x07,0x3b,0x0b,0x69,0x00,0x3b,0x0c,0x5b,0x00))
  ChangeSelfSwitch("A",0)
  ChangeInventoryArmor(8,0,0,1)
  0()
 PAGE   2
  // condition: self-switch A is ON
  0()



EVENT   50
 PAGE   1
  250(bytes(0x04,0x08,0x6f,0x3a,0x0c,0x52,0x50,0x47,0x3a,0x3a,0x53,0x45,0x08,0x3a,0x0a,0x40,0x6e,0x61,0x6d,0x65,0x49,0x22,0x0a,0x43,0x68,0x65,0x73,0x74,0x06,0x3a,0x06,0x45,0x54,0x3a,0x0b,0x40,0x70,0x69,0x74,0x63,0x68,0x69,0x69,0x3a,0x0c,0x40,0x76,0x6f,0x6c,0x75,0x6d,0x65,0x69,0x55))
  205(0,bytes(0x04,0x08,0x6f,0x3a,0x13,0x52,0x50,0x47,0x3a,0x3a,0x4d,0x6f,0x76,0x65,0x52,0x6f,0x75,0x74,0x65,0x09,0x3a,0x0c,0x40,0x72,0x65,0x70,0x65,0x61,0x74,0x46,0x3a,0x0f,0x40,0x73,0x6b,0x69,0x70,0x70,0x61,0x62,0x6c,0x65,0x46,0x3a,0x0a,0x40,0x77,0x61,0x69,0x74,0x54,0x3a,0x0a,0x40,0x6c,0x69,0x73,0x74,0x5b,0x0b,0x6f,0x3a,0x15,0x52,0x50,0x47,0x3a,0x3a,0x4d,0x6f,0x76,0x65,0x43,0x6f,0x6d,0x6d,0x61,0x6e,0x64,0x07,0x3a,0x0a,0x40,0x63,0x6f,0x64,0x65,0x69,0x29,0x3a,0x10,0x40,0x70,0x61,0x72,0x61,0x6d,0x65,0x74,0x65,0x72,0x73,0x5b,0x00,0x6f,0x3b,0x0a,0x07,0x3b,0x0b,0x69,0x16,0x3b,0x0c,0x5b,0x00,0x6f,0x3b,0x0a,0x07,0x3b,0x0b,0x69,0x14,0x3b,0x0c,0x5b,0x06,0x69,0x08,0x6f,0x3b,0x0a,0x07,0x3b,0x0b,0x69,0x17,0x3b,0x0c,0x5b,0x00,0x6f,0x3b,0x0a,0x07,0x3b,0x0b,0x69,0x14,0x3b,0x0c,0x5b,0x06,0x69,0x08,0x6f,0x3b,0x0a,0x07,0x3b,0x0b,0x69,0x00,0x3b,0x0c,0x5b,0x00))
  ChangeSelfSwitch("A",0)
  ChangeInventoryArmor(73,0,0,1)
  0()
 PAGE   2
  // condition: self-switch A is ON
  0()



EVENT   51
 PAGE   1
  250(bytes(0x04,0x08,0x6f,0x3a,0x0c,0x52,0x50,0x47,0x3a,0x3a,0x53,0x45,0x08,0x3a,0x0a,0x40,0x6e,0x61,0x6d,0x65,0x49,0x22,0x0a,0x43,0x68,0x65,0x73,0x74,0x06,0x3a,0x06,0x45,0x54,0x3a,0x0b,0x40,0x70,0x69,0x74,0x63,0x68,0x69,0x69,0x3a,0x0c,0x40,0x76,0x6f,0x6c,0x75,0x6d,0x65,0x69,0x55))
  205(0,bytes(0x04,0x08,0x6f,0x3a,0x13,0x52,0x50,0x47,0x3a,0x3a,0x4d,0x6f,0x76,0x65,0x52,0x6f,0x75,0x74,0x65,0x09,0x3a,0x0c,0x40,0x72,0x65,0x70,0x65,0x61,0x74,0x46,0x3a,0x0f,0x40,0x73,0x6b,0x69,0x70,0x70,0x61,0x62,0x6c,0x65,0x46,0x3a,0x0a,0x40,0x77,0x61,0x69,0x74,0x54,0x3a,0x0a,0x40,0x6c,0x69,0x73,0x74,0x5b,0x0b,0x6f,0x3a,0x15,0x52,0x50,0x47,0x3a,0x3a,0x4d,0x6f,0x76,0x65,0x43,0x6f,0x6d,0x6d,0x61,0x6e,0x64,0x07,0x3a,0x0a,0x40,0x63,0x6f,0x64,0x65,0x69,0x29,0x3a,0x10,0x40,0x70,0x61,0x72,0x61,0x6d,0x65,0x74,0x65,0x72,0x73,0x5b,0x00,0x6f,0x3b,0x0a,0x07,0x3b,0x0b,0x69,0x16,0x3b,0x0c,0x5b,0x00,0x6f,0x3b,0x0a,0x07,0x3b,0x0b,0x69,0x14,0x3b,0x0c,0x5b,0x06,0x69,0x08,0x6f,0x3b,0x0a,0x07,0x3b,0x0b,0x69,0x17,0x3b,0x0c,0x5b,0x00,0x6f,0x3b,0x0a,0x07,0x3b,0x0b,0x69,0x14,0x3b,0x0c,0x5b,0x06,0x69,0x08,0x6f,0x3b,0x0a,0x07,0x3b,0x0b,0x69,0x00,0x3b,0x0c,0x5b,0x00))
  ChangeSelfSwitch("A",0)
  ChangeInventory_Item(64,0,0,1)
  0()
 PAGE   2
  // condition: self-switch A is ON
  0()



EVENT   52
 PAGE   1
  If(12,"unlock_level < 1")
   ShowMessageFace("",0,0,2,1)
   ShowMessage("The chest is locked.")
   EndEventProcessing()
   0()
  EndIf()
  250(bytes(0x04,0x08,0x6f,0x3a,0x0c,0x52,0x50,0x47,0x3a,0x3a,0x53,0x45,0x08,0x3a,0x0a,0x40,0x6e,0x61,0x6d,0x65,0x49,0x22,0x0a,0x43,0x68,0x65,0x73,0x74,0x06,0x3a,0x06,0x45,0x54,0x3a,0x0b,0x40,0x70,0x69,0x74,0x63,0x68,0x69,0x69,0x3a,0x0c,0x40,0x76,0x6f,0x6c,0x75,0x6d,0x65,0x69,0x55))
  205(0,bytes(0x04,0x08,0x6f,0x3a,0x13,0x52,0x50,0x47,0x3a,0x3a,0x4d,0x6f,0x76,0x65,0x52,0x6f,0x75,0x74,0x65,0x09,0x3a,0x0c,0x40,0x72,0x65,0x70,0x65,0x61,0x74,0x46,0x3a,0x0f,0x40,0x73,0x6b,0x69,0x70,0x70,0x61,0x62,0x6c,0x65,0x46,0x3a,0x0a,0x40,0x77,0x61,0x69,0x74,0x54,0x3a,0x0a,0x40,0x6c,0x69,0x73,0x74,0x5b,0x0b,0x6f,0x3a,0x15,0x52,0x50,0x47,0x3a,0x3a,0x4d,0x6f,0x76,0x65,0x43,0x6f,0x6d,0x6d,0x61,0x6e,0x64,0x07,0x3a,0x0a,0x40,0x63,0x6f,0x64,0x65,0x69,0x29,0x3a,0x10,0x40,0x70,0x61,0x72,0x61,0x6d,0x65,0x74,0x65,0x72,0x73,0x5b,0x00,0x6f,0x3b,0x0a,0x07,0x3b,0x0b,0x69,0x16,0x3b,0x0c,0x5b,0x00,0x6f,0x3b,0x0a,0x07,0x3b,0x0b,0x69,0x14,0x3b,0x0c,0x5b,0x06,0x69,0x08,0x6f,0x3b,0x0a,0x07,0x3b,0x0b,0x69,0x17,0x3b,0x0c,0x5b,0x00,0x6f,0x3b,0x0a,0x07,0x3b,0x0b,0x69,0x14,0x3b,0x0c,0x5b,0x06,0x69,0x08,0x6f,0x3b,0x0a,0x07,0x3b,0x0b,0x69,0x00,0x3b,0x0c,0x5b,0x00))
  ChangeSelfSwitch("A",0)
  ChangeInventoryWeapon(561,0,0,1)
  0()
 PAGE   2
  // condition: self-switch A is ON
  0()



EVENT   53
 PAGE   1
  250(bytes(0x04,0x08,0x6f,0x3a,0x0c,0x52,0x50,0x47,0x3a,0x3a,0x53,0x45,0x08,0x3a,0x0a,0x40,0x6e,0x61,0x6d,0x65,0x49,0x22,0x0a,0x43,0x68,0x65,0x73,0x74,0x06,0x3a,0x06,0x45,0x54,0x3a,0x0b,0x40,0x70,0x69,0x74,0x63,0x68,0x69,0x69,0x3a,0x0c,0x40,0x76,0x6f,0x6c,0x75,0x6d,0x65,0x69,0x55))
  205(0,bytes(0x04,0x08,0x6f,0x3a,0x13,0x52,0x50,0x47,0x3a,0x3a,0x4d,0x6f,0x76,0x65,0x52,0x6f,0x75,0x74,0x65,0x09,0x3a,0x0c,0x40,0x72,0x65,0x70,0x65,0x61,0x74,0x46,0x3a,0x0f,0x40,0x73,0x6b,0x69,0x70,0x70,0x61,0x62,0x6c,0x65,0x46,0x3a,0x0a,0x40,0x77,0x61,0x69,0x74,0x54,0x3a,0x0a,0x40,0x6c,0x69,0x73,0x74,0x5b,0x0b,0x6f,0x3a,0x15,0x52,0x50,0x47,0x3a,0x3a,0x4d,0x6f,0x76,0x65,0x43,0x6f,0x6d,0x6d,0x61,0x6e,0x64,0x07,0x3a,0x0a,0x40,0x63,0x6f,0x64,0x65,0x69,0x29,0x3a,0x10,0x40,0x70,0x61,0x72,0x61,0x6d,0x65,0x74,0x65,0x72,0x73,0x5b,0x00,0x6f,0x3b,0x0a,0x07,0x3b,0x0b,0x69,0x16,0x3b,0x0c,0x5b,0x00,0x6f,0x3b,0x0a,0x07,0x3b,0x0b,0x69,0x14,0x3b,0x0c,0x5b,0x06,0x69,0x08,0x6f,0x3b,0x0a,0x07,0x3b,0x0b,0x69,0x17,0x3b,0x0c,0x5b,0x00,0x6f,0x3b,0x0a,0x07,0x3b,0x0b,0x69,0x14,0x3b,0x0c,0x5b,0x06,0x69,0x08,0x6f,0x3b,0x0a,0x07,0x3b,0x0b,0x69,0x00,0x3b,0x0c,0x5b,0x00))
  ChangeSelfSwitch("A",0)
  ChangeInventory_Item(32,0,0,1)
  0()
 PAGE   2
  // condition: self-switch A is ON
  0()



EVENT   54
 PAGE   1
  250(bytes(0x04,0x08,0x6f,0x3a,0x0c,0x52,0x50,0x47,0x3a,0x3a,0x53,0x45,0x08,0x3a,0x0a,0x40,0x6e,0x61,0x6d,0x65,0x49,0x22,0x0a,0x43,0x68,0x65,0x73,0x74,0x06,0x3a,0x06,0x45,0x54,0x3a,0x0b,0x40,0x70,0x69,0x74,0x63,0x68,0x69,0x69,0x3a,0x0c,0x40,0x76,0x6f,0x6c,0x75,0x6d,0x65,0x69,0x55))
  205(0,bytes(0x04,0x08,0x6f,0x3a,0x13,0x52,0x50,0x47,0x3a,0x3a,0x4d,0x6f,0x76,0x65,0x52,0x6f,0x75,0x74,0x65,0x09,0x3a,0x0c,0x40,0x72,0x65,0x70,0x65,0x61,0x74,0x46,0x3a,0x0f,0x40,0x73,0x6b,0x69,0x70,0x70,0x61,0x62,0x6c,0x65,0x46,0x3a,0x0a,0x40,0x77,0x61,0x69,0x74,0x54,0x3a,0x0a,0x40,0x6c,0x69,0x73,0x74,0x5b,0x0b,0x6f,0x3a,0x15,0x52,0x50,0x47,0x3a,0x3a,0x4d,0x6f,0x76,0x65,0x43,0x6f,0x6d,0x6d,0x61,0x6e,0x64,0x07,0x3a,0x0a,0x40,0x63,0x6f,0x64,0x65,0x69,0x29,0x3a,0x10,0x40,0x70,0x61,0x72,0x61,0x6d,0x65,0x74,0x65,0x72,0x73,0x5b,0x00,0x6f,0x3b,0x0a,0x07,0x3b,0x0b,0x69,0x16,0x3b,0x0c,0x5b,0x00,0x6f,0x3b,0x0a,0x07,0x3b,0x0b,0x69,0x14,0x3b,0x0c,0x5b,0x06,0x69,0x08,0x6f,0x3b,0x0a,0x07,0x3b,0x0b,0x69,0x17,0x3b,0x0c,0x5b,0x00,0x6f,0x3b,0x0a,0x07,0x3b,0x0b,0x69,0x14,0x3b,0x0c,0x5b,0x06,0x69,0x08,0x6f,0x3b,0x0a,0x07,0x3b,0x0b,0x69,0x00,0x3b,0x0c,0x5b,0x00))
  ChangeSelfSwitch("A",0)
  ChangeInventory_Item(5,0,0,1)
  0()
 PAGE   2
  // condition: self-switch A is ON
  0()



EVENT   55
 PAGE   1
  250(bytes(0x04,0x08,0x6f,0x3a,0x0c,0x52,0x50,0x47,0x3a,0x3a,0x53,0x45,0x08,0x3a,0x0a,0x40,0x6e,0x61,0x6d,0x65,0x49,0x22,0x0a,0x43,0x68,0x65,0x73,0x74,0x06,0x3a,0x06,0x45,0x54,0x3a,0x0b,0x40,0x70,0x69,0x74,0x63,0x68,0x69,0x69,0x3a,0x0c,0x40,0x76,0x6f,0x6c,0x75,0x6d,0x65,0x69,0x55))
  205(0,bytes(0x04,0x08,0x6f,0x3a,0x13,0x52,0x50,0x47,0x3a,0x3a,0x4d,0x6f,0x76,0x65,0x52,0x6f,0x75,0x74,0x65,0x09,0x3a,0x0c,0x40,0x72,0x65,0x70,0x65,0x61,0x74,0x46,0x3a,0x0f,0x40,0x73,0x6b,0x69,0x70,0x70,0x61,0x62,0x6c,0x65,0x46,0x3a,0x0a,0x40,0x77,0x61,0x69,0x74,0x54,0x3a,0x0a,0x40,0x6c,0x69,0x73,0x74,0x5b,0x0b,0x6f,0x3a,0x15,0x52,0x50,0x47,0x3a,0x3a,0x4d,0x6f,0x76,0x65,0x43,0x6f,0x6d,0x6d,0x61,0x6e,0x64,0x07,0x3a,0x0a,0x40,0x63,0x6f,0x64,0x65,0x69,0x29,0x3a,0x10,0x40,0x70,0x61,0x72,0x61,0x6d,0x65,0x74,0x65,0x72,0x73,0x5b,0x00,0x6f,0x3b,0x0a,0x07,0x3b,0x0b,0x69,0x16,0x3b,0x0c,0x5b,0x00,0x6f,0x3b,0x0a,0x07,0x3b,0x0b,0x69,0x14,0x3b,0x0c,0x5b,0x06,0x69,0x08,0x6f,0x3b,0x0a,0x07,0x3b,0x0b,0x69,0x17,0x3b,0x0c,0x5b,0x00,0x6f,0x3b,0x0a,0x07,0x3b,0x0b,0x69,0x14,0x3b,0x0c,0x5b,0x06,0x69,0x08,0x6f,0x3b,0x0a,0x07,0x3b,0x0b,0x69,0x00,0x3b,0x0c,0x5b,0x00))
  ChangeSelfSwitch("A",0)
  ChangeInventory_Item(30,0,0,1)
  0()
 PAGE   2
  // condition: self-switch A is ON
  0()



EVENT   56
 PAGE   1
  250(bytes(0x04,0x08,0x6f,0x3a,0x0c,0x52,0x50,0x47,0x3a,0x3a,0x53,0x45,0x08,0x3a,0x0a,0x40,0x6e,0x61,0x6d,0x65,0x49,0x22,0x0a,0x43,0x68,0x65,0x73,0x74,0x06,0x3a,0x06,0x45,0x54,0x3a,0x0b,0x40,0x70,0x69,0x74,0x63,0x68,0x69,0x69,0x3a,0x0c,0x40,0x76,0x6f,0x6c,0x75,0x6d,0x65,0x69,0x55))
  205(0,bytes(0x04,0x08,0x6f,0x3a,0x13,0x52,0x50,0x47,0x3a,0x3a,0x4d,0x6f,0x76,0x65,0x52,0x6f,0x75,0x74,0x65,0x09,0x3a,0x0c,0x40,0x72,0x65,0x70,0x65,0x61,0x74,0x46,0x3a,0x0f,0x40,0x73,0x6b,0x69,0x70,0x70,0x61,0x62,0x6c,0x65,0x46,0x3a,0x0a,0x40,0x77,0x61,0x69,0x74,0x54,0x3a,0x0a,0x40,0x6c,0x69,0x73,0x74,0x5b,0x0b,0x6f,0x3a,0x15,0x52,0x50,0x47,0x3a,0x3a,0x4d,0x6f,0x76,0x65,0x43,0x6f,0x6d,0x6d,0x61,0x6e,0x64,0x07,0x3a,0x0a,0x40,0x63,0x6f,0x64,0x65,0x69,0x29,0x3a,0x10,0x40,0x70,0x61,0x72,0x61,0x6d,0x65,0x74,0x65,0x72,0x73,0x5b,0x00,0x6f,0x3b,0x0a,0x07,0x3b,0x0b,0x69,0x16,0x3b,0x0c,0x5b,0x00,0x6f,0x3b,0x0a,0x07,0x3b,0x0b,0x69,0x14,0x3b,0x0c,0x5b,0x06,0x69,0x08,0x6f,0x3b,0x0a,0x07,0x3b,0x0b,0x69,0x17,0x3b,0x0c,0x5b,0x00,0x6f,0x3b,0x0a,0x07,0x3b,0x0b,0x69,0x14,0x3b,0x0c,0x5b,0x06,0x69,0x08,0x6f,0x3b,0x0a,0x07,0x3b,0x0b,0x69,0x00,0x3b,0x0c,0x5b,0x00))
  ChangeSelfSwitch("A",0)
  ChangeInventoryWeapon(302,0,0,1)
  0()
 PAGE   2
  // condition: self-switch A is ON
  0()



EVENT   57
 PAGE   1
  // condition: variable 1001 >= 15
  ChangeSelfSwitch("A",0)
  ShowMessageFace("ruka_fc1",0,0,2,1)
  ShowMessage("\\n<Luka>So this is the Forest of Spirits. Sylph resides in here somewhere...")
  If(4,79,0)
   ShowMessageFace("nuruko_fc1",0,0,2,2)
   ShowMessage("\\n<Nuruko>Kyukyu, kyuu!")
   0()
  EndIf()
  If(0,4,0)
   ShowMessageFace("alice_fc5",0,0,2,3)
   ShowMessage("\\n<Alice>Along with Sylph, there are plenty of fairies and elves hiding in this forest, but they usually mean no harm to humans.")
   ShowMessageFace("alice_fc5",0,0,2,4)
   ShowMessage("\\n<Alice>Of course, it's another story if you trespass in their territory. After all, the world is in chaos...")
   0()
  EndIf()
  If(0,5,0)
   ShowMessageFace("iriasu_fc4",2,0,2,5)
   ShowMessage("\\n<Ilias>Evil fairies and elves lurk in this forest. Whenever they see humans, they become frenzied and attack them.")
   0()
  EndIf()
  ShowMessageFace("ruka_fc1",0,0,2,6)
  ShowMessage("\\n<Luka>But we need to go in. I need to form a contract with Sylph and acquire the power of wind!")
  ShowMessageFace("",0,0,2,7)
  ShowMessage("According to dad, that will push history towards how it's supposed to be. Besides, I do want to become more powerful...")
  ShowMessageFace("ruka_fc1",0,0,2,8)
  ShowMessage("\\n<Luka>Now, let's go! I'm sure Sylph is deep inside the forest!")
  If(4,129,0)
   ShowMessageFace("brunhild_fc1",0,0,2,9)
   ShowMessage("\\n<Hild>Sylph search, start.")
   0()
  EndIf()
  If(0,5,0)
   ShowMessageFace("iriasu_fc4",2,0,2,10)
   ShowMessage("\\n<Ilias>Honestly, I'm against this. To think you have to borrow the power of an evil bunch of spirits, of all things.")
   ShowMessageFace("iriasu_fc4",2,0,2,11)
   ShowMessage("\\n<Ilias>Well, as long as you treat them like dirty rags... I'll make an exception and allow it.")
   ShowMessageFace("ruka_fc1",0,0,2,12)
   ShowMessage("\\n<Luka>......")
   0()
  EndIf()
  0()
 PAGE   2
  // condition: self-switch A is ON
  0()



EVENT   58
 PAGE   1
  250(bytes(0x04,0x08,0x6f,0x3a,0x0c,0x52,0x50,0x47,0x3a,0x3a,0x53,0x45,0x08,0x3a,0x0a,0x40,0x6e,0x61,0x6d,0x65,0x49,0x22,0x0a,0x43,0x68,0x65,0x73,0x74,0x06,0x3a,0x06,0x45,0x54,0x3a,0x0b,0x40,0x70,0x69,0x74,0x63,0x68,0x69,0x69,0x3a,0x0c,0x40,0x76,0x6f,0x6c,0x75,0x6d,0x65,0x69,0x55))
  205(0,bytes(0x04,0x08,0x6f,0x3a,0x13,0x52,0x50,0x47,0x3a,0x3a,0x4d,0x6f,0x76,0x65,0x52,0x6f,0x75,0x74,0x65,0x09,0x3a,0x0c,0x40,0x72,0x65,0x70,0x65,0x61,0x74,0x46,0x3a,0x0f,0x40,0x73,0x6b,0x69,0x70,0x70,0x61,0x62,0x6c,0x65,0x46,0x3a,0x0a,0x40,0x77,0x61,0x69,0x74,0x54,0x3a,0x0a,0x40,0x6c,0x69,0x73,0x74,0x5b,0x0b,0x6f,0x3a,0x15,0x52,0x50,0x47,0x3a,0x3a,0x4d,0x6f,0x76,0x65,0x43,0x6f,0x6d,0x6d,0x61,0x6e,0x64,0x07,0x3a,0x0a,0x40,0x63,0x6f,0x64,0x65,0x69,0x29,0x3a,0x10,0x40,0x70,0x61,0x72,0x61,0x6d,0x65,0x74,0x65,0x72,0x73,0x5b,0x00,0x6f,0x3b,0x0a,0x07,0x3b,0x0b,0x69,0x16,0x3b,0x0c,0x5b,0x00,0x6f,0x3b,0x0a,0x07,0x3b,0x0b,0x69,0x14,0x3b,0x0c,0x5b,0x06,0x69,0x08,0x6f,0x3b,0x0a,0x07,0x3b,0x0b,0x69,0x17,0x3b,0x0c,0x5b,0x00,0x6f,0x3b,0x0a,0x07,0x3b,0x0b,0x69,0x14,0x3b,0x0c,0x5b,0x06,0x69,0x08,0x6f,0x3b,0x0a,0x07,0x3b,0x0b,0x69,0x00,0x3b,0x0c,0x5b,0x00))
  ChangeSelfSwitch("A",0)
  ChangeInventory_Item(188,0,0,1)
  0()
 PAGE   2
  // condition: self-switch A is ON
  0()



EVENT   59
 PAGE   1
  // condition: variable 1001 >= 15
  217()
  241(bytes(0x04,0x08,0x6f,0x3a,0x0d,0x52,0x50,0x47,0x3a,0x3a,0x42,0x47,0x4d,0x08,0x3a,0x0a,0x40,0x6e,0x61,0x6d,0x65,0x49,0x22,0x10,0x73,0x63,0x65,0x6e,0x65,0x5f,0x73,0x69,0x6e,0x70,0x69,0x06,0x3a,0x06,0x45,0x54,0x3a,0x0c,0x40,0x76,0x6f,0x6c,0x75,0x6d,0x65,0x69,0x69,0x3a,0x0b,0x40,0x70,0x69,0x74,0x63,0x68,0x69,0x69))
  PictureDisplay(5,"80_sylph_st01",0,0,0,0,100,100,0,0)
  PictureMove(5,null,0,0,0,0,100,100,255,0,30,true)
  ShowMessageFace("sylph_fc1",0,0,2,1)
  ShowMessage("\\n<Sylph>Eh, eh? What does a human want here?")
  ShowMessageFace("ruka_fc1",0,0,2,2)
  ShowMessage("\\n<Luka>Um... Are you Sylph of the Four Spirits?")
  ShowMessageFace("sylph_fc1",0,0,2,3)
  ShowMessage("\\n<Sylph>Yes, I am Sylph. Do you require something from me?")
  ShowMessageFace("ruka_fc1",0,0,2,4)
  ShowMessage("\\n<Luka>I came here because I want to borrow your power.")
  ShowMessageFace("sylph_fc1",0,0,2,5)
  ShowMessage("\\n<Sylph>Why do you want my power? Can you tell me your desire?")
  ShowChoices(strings("To catch up to my dad","For the sake of what I was entrusted with","To protect the world","For world domination"),0)
  IfPlayerPicksChoice(0,null)
   ShowMessageFace("ruka_fc1",0,0,2,6)
   ShowMessage("\\n<Luka>I'm looking for my dad. If I have the power of spirits, I think I'll be able catch up to him.")
   ShowMessageFace("",0,0,2,7)
   ShowMessage("I came all this way chasing after my dad. But I need more power to get any further.")
   PictureDisplay(5,"80_sylph_st04",0,0,0,0,100,100,255,0)
   ShowMessageFace("sylph_fc1",1,0,2,8)
   ShowMessage("\\n<Sylph>Is that so... Looks like my power won't be used for bad things.")
   0()
  IfPlayerPicksChoice(1,null)
   If(1,1021,0,2,0)
    ShowMessageFace("ruka_fc1",0,0,2,9)
    ShowMessage("\\n<Luka>On the way here, I was entrusted with many things by various people. Among them, there's someone who entrusted their power to me, and then died...")
    0()
   Else()
    ShowMessageFace("ruka_fc1",0,0,2,10)
    ShowMessage("\\n<Luka>On the way here I was entrusted with many things by various people.")
    0()
   EndIf()
   ShowMessageFace("ruka_fc1",0,0,2,11)
   ShowMessage("\\n<Luka>I need more power to live up to their trust. That's why I want you to lend me your power.")
   ShowMessageFace("",0,0,2,12)
   ShowMessage("I need power to move forward, on behalf of everyone who entrusted me with their feelings")
   PictureDisplay(5,"80_sylph_st04",0,0,0,0,100,100,255,0)
   ShowMessageFace("sylph_fc1",1,0,2,13)
   ShowMessage("\\n<Sylph>Is that so... Looks like my power won't be used for bad things.")
   0()
  IfPlayerPicksChoice(2,null)
   ShowMessageFace("ruka_fc1",0,0,2,14)
   ShowMessage("\\n<Luka>Right now, major disasters are happening all over the world. I need power to confront them.")
   ShowMessageFace("",0,0,2,15)
   ShowMessage("From here on, we will probably fight many powerful enemies, too. In order to overcome those battles, I need power.")
   PictureDisplay(5,"80_sylph_st04",0,0,0,0,100,100,255,0)
   ShowMessageFace("sylph_fc1",1,0,2,16)
   ShowMessage("\\n<Sylph>Is that so... Looks like my power won't be used for bad things.")
   0()
  IfPlayerPicksChoice(3,null)
   ShowMessageFace("ruka_fc1",0,0,2,17)
   ShowMessage("\\n<Luka>In order to dominate this world...")
   PictureDisplay(5,"80_sylph_st04",0,0,0,0,100,100,255,0)
   If(2,"A",1)
    ChangeSelfSwitch("A",0)
    RunCommonEvent(303)
    0()
   EndIf()
   ShowMessageFace("sylph_fc1",1,0,2,18)
   ShowMessage("\\n<Sylph>Hey, is your head okay...?")
   0()
  404()
  ShowMessageFace("sylph_fc1",1,0,2,19)
  ShowMessage("\\n<Sylph>But... a spirit's power can't be given to a weak man. Rather, a weak man can't master my power.")
  PictureDisplay(5,"80_sylph_st05",0,0,0,0,100,100,255,0)
  ShowMessageFace("sylph_fc1",2,0,2,20)
  ShowMessage("\\n<Sylph>So... I'll test you in a fight! Then I'll surely see whether or not you're worthy!")
  ShowMessageFace("ruka_fc1",0,0,2,21)
  ShowMessage("\\n<Luka>If you want to test me, then don't hold back! I'll meet you with my full strength!")
  If(0,4,0)
   ShowMessageFace("alice_fc5",2,0,2,22)
   ShowMessage("\\n<Alice>Despite everything, you are a human that I have acknowledged. This mock test is pointless, let's finish it quickly!")
   0()
  EndIf()
  If(0,5,0)
   ShowMessageFace("iriasu_fc4",7,0,2,23)
   ShowMessage("\\n<Ilias>A mere spirit is going to test the human I have my sights on? You lowly fly, become one with the wind you so love!")
   0()
  EndIf()
  If(0,6,0)
   ShowMessageFace("sonia_fc1",3,0,2,24)
   ShowMessage("\\n<Sonya>I'll smash her up too!")
   0()
  EndIf()
  If(4,79,0)
   ShowMessageFace("nuruko_fc1",0,0,2,25)
   ShowMessage("\\n<Nuruko>Kyuu! Kyuu!")
   0()
  EndIf()
  If(4,41,0)
   ShowMessageFace("stein_fc2",1,0,2,26)
   ShowMessage("\\n<Promestein>I've always wanted to dissect a fairy...")
   0()
  EndIf()
  If(4,118,0)
   ShowMessageFace("meia_fc1",0,0,2,27)
   ShowMessage("\\n<Meia>I'm not fond of being violent to fairies, but... if that's what she wants...")
   0()
  EndIf()
  If(4,531,0)
   ShowMessageFace("saniria_fc2",0,0,2,28)
   ShowMessage("\\n<King of San Ilia>Then I shall assist you. I'll overwhelm her with firepower!")
   0()
  EndIf()
  If(4,129,0)
   ShowMessageFace("brunhild_fc1",0,0,2,29)
   ShowMessage("\\n<Hild>Are you the world's enemy? Then Hild will take you out...")
   0()
  EndIf()
  PictureDisplay(5,"80_sylph_st03",0,0,0,0,100,100,255,0)
  ShowMessageFace("sylph_fc1",4,0,2,30)
  ShowMessage("\\n<Sylph>I feel like I'm about to be beat up...")
  If(4,12,0)
   ShowMessageFace("sylph_fc1",7,0,2,31)
   ShowMessage("\\n<Sylph>......")
   PictureDisplay(5,"80_sylph_st01",0,0,0,0,100,100,255,0)
   ShowMessageFace("sylph_fc1",7,0,2,32)
   ShowMessage("\\n<Sylph>...?")
   ShowMessageFace("sylph_fc1",7,0,2,33)
   ShowMessage("\\n<Sylph>...Chi Pa Pa!!")
   ShowMessageFace("sylph_fc1",7,0,2,34)
   ShowMessage("\\n<Sylph>Chi Pa Pa. ♪")
   0()
  EndIf()
  PictureClear(5)
  SetBattleBGM(bytes(0x04,0x08,0x6f,0x3a,0x0d,0x52,0x50,0x47,0x3a,0x3a,0x42,0x47,0x4d,0x08,0x3a,0x0a,0x40,0x6e,0x61,0x6d,0x65,0x49,0x22,0x13,0x62,0x6f,0x73,0x73,0x5f,0x79,0x6f,0x6e,0x73,0x65,0x69,0x72,0x65,0x69,0x06,0x3a,0x06,0x45,0x54,0x3a,0x0c,0x40,0x76,0x6f,0x6c,0x75,0x6d,0x65,0x69,0x69,0x3a,0x0b,0x40,0x70,0x69,0x74,0x63,0x68,0x69,0x69))
  ChangeSwitch(22,22,0)
  Battle(0,212,false,false)
  ChangeSwitch(22,22,1)
  SetBattleBGM(bytes(0x04,0x08,0x6f,0x3a,0x0d,0x52,0x50,0x47,0x3a,0x3a,0x42,0x47,0x4d,0x08,0x3a,0x0a,0x40,0x6e,0x61,0x6d,0x65,0x49,0x22,0x0b,0x62,0x61,0x74,0x74,0x6c,0x65,0x06,0x3a,0x06,0x45,0x54,0x3a,0x0c,0x40,0x76,0x6f,0x6c,0x75,0x6d,0x65,0x69,0x69,0x3a,0x0b,0x40,0x70,0x69,0x74,0x63,0x68,0x69,0x69))
  PictureDisplay(5,"80_sylph_st04",0,0,0,0,100,100,0,0)
  PictureMove(5,null,0,0,0,0,100,100,255,0,30,true)
  241(bytes(0x04,0x08,0x6f,0x3a,0x0d,0x52,0x50,0x47,0x3a,0x3a,0x42,0x47,0x4d,0x08,0x3a,0x0a,0x40,0x6e,0x61,0x6d,0x65,0x49,0x22,0x19,0x64,0x75,0x6e,0x67,0x65,0x6f,0x6e,0x5f,0x73,0x65,0x69,0x72,0x65,0x69,0x6e,0x6f,0x6d,0x6f,0x72,0x69,0x06,0x3a,0x06,0x45,0x54,0x3a,0x0c,0x40,0x76,0x6f,0x6c,0x75,0x6d,0x65,0x69,0x69,0x3a,0x0b,0x40,0x70,0x69,0x74,0x63,0x68,0x69,0x69))
  ShowMessageFace("ruka_fc1",0,0,2,35)
  ShowMessage("\\n<Luka>All right, victory is ours! We pass the test, right?!")
  ShowMessageFace("sylph_fc1",1,0,2,36)
  ShowMessage("\\n<Sylph>\"I shall test whether or not you are qualified to use this power...\" Normally, when told something like that, only the one I called upon would challenge me, right?")
  PictureDisplay(5,"80_sylph_st03",0,0,0,0,100,100,255,0)
  ShowMessageFace("sylph_fc1",4,0,2,37)
  ShowMessage("\\n<Sylph>Then, isn't it weird that everyone beat me up? I held out well anyway, right...?")
  ShowChoices(strings("Yes","No"),2)
  IfPlayerPicksChoice(0,null)
   If(0,6,0)
    ShowMessageFace("sonia_fc4",0,0,2,38)
    ShowMessage("\\n<Sonya>(Why did it wind up like we were the ones testing her...?)")
    0()
   Else()
    ShowMessageFace("ruka_fc1",0,0,2,39)
    ShowMessage("\\n<Luka>(Why did it wind up like we were the ones testing her...?)")
    0()
   EndIf()
   0()
  IfPlayerPicksChoice(1,null)
   If(0,6,0)
    ShowMessageFace("sonia_fc4",0,0,2,40)
    ShowMessage("\\n<Sonya>(Why did it wind up like we were the ones testing her...?)")
    0()
   Else()
    ShowMessageFace("ruka_fc1",0,0,2,41)
    ShowMessage("\\n<Luka>(Why did it wind up like we were the ones testing her...?)")
    0()
   EndIf()
   ShowMessageFace("sylph_fc1",4,0,2,42)
   ShowMessage("\\n<Sylph>That's horrible! It's not faaaair!")
   ShowMessageFace("ruka_fc1",0,0,2,43)
   ShowMessage("\\n<Luka>S-sorry... I respect your determination, but that battle was... Yeah.")
   0()
  404()
  PictureDisplay(5,"80_sylph_st01",0,0,0,0,100,100,255,0)
  ShowMessageFace("sylph_fc1",0,0,2,44)
  ShowMessage("\\n<Sylph>Well then, you pass! As promised, I'll lend you my power. ♪")
  PictureDisplay(5,"80_sylph_st12",0,0,0,0,100,100,255,0)
  ShowMessageFace("sylph_fc1",2,0,2,45)
  ShowMessage("\\n<Sylph>First, the summoning contract... There!")
  250(bytes(0x04,0x08,0x6f,0x3a,0x0c,0x52,0x50,0x47,0x3a,0x3a,0x53,0x45,0x08,0x3a,0x0a,0x40,0x6e,0x61,0x6d,0x65,0x49,0x22,0x0d,0x6d,0x6f,0x6e,0x5f,0x77,0x61,0x72,0x6d,0x06,0x3a,0x06,0x45,0x54,0x3a,0x0b,0x40,0x70,0x69,0x74,0x63,0x68,0x69,0x69,0x3a,0x0c,0x40,0x76,0x6f,0x6c,0x75,0x6d,0x65,0x69,0x69))
  PictureDisplay(10,"sys_white",0,0,0,0,100,100,0,0)
  PictureMove(10,null,0,0,0,0,100,100,255,0,30,true)
  PictureMove(10,null,0,0,0,0,100,100,0,0,30,true)
  PictureClear(10)
  ShowMessageFace("ruka_fc1",0,0,2,46)
  ShowMessage("\\n<Luka>Eh...?! What's happening?")
  ShowMessageFace("",0,0,2,47)
  ShowMessage("A mysterious feeling spreads throughout my body. It feels like my body is fusing with the air around me.")
  ShowMessageFace("",0,0,2,48)
  ShowMessage("It feels as though the wind itself is blowing inside my body. Is this what it means to borrow the power of the spirits?")
  318(0,1,0,3106)
  250(bytes(0x04,0x08,0x6f,0x3a,0x0c,0x52,0x50,0x47,0x3a,0x3a,0x53,0x45,0x08,0x3a,0x0a,0x40,0x6e,0x61,0x6d,0x65,0x49,0x22,0x0a,0x49,0x74,0x65,0x6d,0x31,0x06,0x3a,0x06,0x45,0x54,0x3a,0x0b,0x40,0x70,0x69,0x74,0x63,0x68,0x69,0x69,0x3a,0x0c,0x40,0x76,0x6f,0x6c,0x75,0x6d,0x65,0x69,0x55))
  ShowMessageFace("",0,0,2,49)
  ShowMessage("Luka learned \\I[300]\\C[1]Sylph\\C[0]!")
  PictureDisplay(5,"80_sylph_st01",0,0,0,0,100,100,255,0)
  ShowMessageFace("sylph_fc1",0,0,2,50)
  ShowMessage("\\n<Sylph>You don't need a summoner's knowledge for this. It's an exclusive contract! You can call me from the \"Special\" category.")
  ShowMessageFace("sylph_fc1",0,0,2,51)
  ShowMessage("\\n<Sylph>If you want me to beat up someone, I'll come with you as well. You can summon me even when I'm in your party, so don't worry. ♪")
  PictureClear(5)
  205(0,bytes(0x04,0x08,0x6f,0x3a,0x13,0x52,0x50,0x47,0x3a,0x3a,0x4d,0x6f,0x76,0x65,0x52,0x6f,0x75,0x74,0x65,0x09,0x3a,0x0c,0x40,0x72,0x65,0x70,0x65,0x61,0x74,0x46,0x3a,0x0f,0x40,0x73,0x6b,0x69,0x70,0x70,0x61,0x62,0x6c,0x65,0x46,0x3a,0x0a,0x40,0x77,0x61,0x69,0x74,0x54,0x3a,0x0a,0x40,0x6c,0x69,0x73,0x74,0x5b,0x09,0x6f,0x3a,0x15,0x52,0x50,0x47,0x3a,0x3a,0x4d,0x6f,0x76,0x65,0x43,0x6f,0x6d,0x6d,0x61,0x6e,0x64,0x07,0x3a,0x0a,0x40,0x63,0x6f,0x64,0x65,0x69,0x2a,0x3a,0x10,0x40,0x70,0x61,0x72,0x61,0x6d,0x65,0x74,0x65,0x72,0x73,0x5b,0x00,0x6f,0x3b,0x0a,0x07,0x3b,0x0b,0x69,0x0f,0x3b,0x0c,0x5b,0x00,0x6f,0x3b,0x0a,0x07,0x3b,0x0b,0x69,0x2c,0x3b,0x0c,0x5b,0x00,0x6f,0x3b,0x0a,0x07,0x3b,0x0b,0x69,0x00,0x3b,0x0c,0x5b,0x00))
  355("add_actor_ex(12)")
  249(bytes(0x04,0x08,0x6f,0x3a,0x0c,0x52,0x50,0x47,0x3a,0x3a,0x4d,0x45,0x08,0x3a,0x0a,0x40,0x6e,0x61,0x6d,0x65,0x49,0x22,0x0c,0x66,0x61,0x6e,0x66,0x61,0x6c,0x65,0x06,0x3a,0x06,0x45,0x54,0x3a,0x0b,0x40,0x70,0x69,0x74,0x63,0x68,0x69,0x69,0x3a,0x0c,0x40,0x76,0x6f,0x6c,0x75,0x6d,0x65,0x69,0x69))
  ShowMessageFace("",0,0,2,52)
  ShowMessage("Sylph joined the party!")
  If(4,41,0)
   ShowMessageFace("stein_fc2",1,0,2,53)
   ShowMessage("\\n<Promestein>Domesticating spirits, how interesting... Ah, I prepared a bird cage for just such a situation, but...")
   0()
  EndIf()
  If(4,79,0)
   ShowMessageFace("nuruko_fc1",0,0,2,54)
   ShowMessage("\\n<Nuruko>Kyuu! Kyukyuu!")
   0()
  EndIf()
  ChangeVariable(1001,1001,0,0,17)
  Wait(60)
  If(0,4,0)
   ShowMessageFace("alice_fc5",0,0,2,55)
   ShowMessage("\\n<Alice>Mm, our objective is complete. Now, let's leave the forest.")
   0()
  EndIf()
  If(0,5,0)
   ShowMessageFace("iriasu_fc4",2,0,2,56)
   ShowMessage("\\n<Ilias>Good grief, so you ended up contracting with a spirit after all... Well then, let's quickly leave this forest.")
   0()
  EndIf()
  241(bytes(0x04,0x08,0x6f,0x3a,0x0d,0x52,0x50,0x47,0x3a,0x3a,0x42,0x47,0x4d,0x08,0x3a,0x0a,0x40,0x6e,0x61,0x6d,0x65,0x49,0x22,0x0a,0x62,0x6f,0x73,0x73,0x30,0x06,0x3a,0x06,0x45,0x54,0x3a,0x0c,0x40,0x76,0x6f,0x6c,0x75,0x6d,0x65,0x69,0x69,0x3a,0x0b,0x40,0x70,0x69,0x74,0x63,0x68,0x69,0x69))
  ShowMessageFace("ruka_fc1",0,0,2,57)
  ShowMessage("\\n<Luka>What's this... My spine is all tingly...")
  If(0,4,0)
   ShowMessageFace("alice_fc6",0,0,2,58)
   ShowMessage("\\n<Alice>What's with this abnormal magic?! It's similar to holy power, but it's too ominous to be that of an angel's!")
   0()
  EndIf()
  If(0,5,0)
   ShowMessageFace("iriasu_fc4",7,0,2,59)
   ShowMessage("\\n<Ilias>What is this abnormal magic?! It's as if holy energy went berserk and degenerated!")
   0()
  EndIf()
  250(bytes(0x04,0x08,0x6f,0x3a,0x0c,0x52,0x50,0x47,0x3a,0x3a,0x53,0x45,0x08,0x3a,0x0a,0x40,0x6e,0x61,0x6d,0x65,0x49,0x22,0x0e,0x44,0x61,0x72,0x6b,0x6e,0x65,0x73,0x73,0x35,0x06,0x3a,0x06,0x45,0x54,0x3a,0x0b,0x40,0x70,0x69,0x74,0x63,0x68,0x69,0x69,0x3a,0x0c,0x40,0x76,0x6f,0x6c,0x75,0x6d,0x65,0x69,0x55))
  ChangeSwitch(31,31,0)
  205(-1,bytes(0x04,0x08,0x6f,0x3a,0x13,0x52,0x50,0x47,0x3a,0x3a,0x4d,0x6f,0x76,0x65,0x52,0x6f,0x75,0x74,0x65,0x09,0x3a,0x0c,0x40,0x72,0x65,0x70,0x65,0x61,0x74,0x46,0x3a,0x0f,0x40,0x73,0x6b,0x69,0x70,0x70,0x61,0x62,0x6c,0x65,0x46,0x3a,0x0a,0x40,0x77,0x61,0x69,0x74,0x54,0x3a,0x0a,0x40,0x6c,0x69,0x73,0x74,0x5b,0x07,0x6f,0x3a,0x15,0x52,0x50,0x47,0x3a,0x3a,0x4d,0x6f,0x76,0x65,0x43,0x6f,0x6d,0x6d,0x61,0x6e,0x64,0x07,0x3a,0x0a,0x40,0x63,0x6f,0x64,0x65,0x69,0x15,0x3a,0x10,0x40,0x70,0x61,0x72,0x61,0x6d,0x65,0x74,0x65,0x72,0x73,0x5b,0x00,0x6f,0x3b,0x0a,0x07,0x3b,0x0b,0x69,0x00,0x3b,0x0c,0x5b,0x00))
  ShowSpeechBalloon(-1,1,false)
  ShowMessageFace("",0,0,2,60)
  ShowMessage("The next moment, the owner of this magic appeared!")
  Wait(15)
  PictureDisplay(5,"80_heinrich_st11",0,0,0,0,100,100,0,0)
  PictureMove(5,null,0,0,0,0,100,100,255,0,30,true)
  ShowMessageFace("heinrich_fc2",0,0,2,61)
  ShowMessage("\\n<Armored Berserker>ANGEL... ANGELll...")
  ShowMessageFace("ruka_fc1",0,0,2,62)
  ShowMessage("\\n<Luka>W... what's with this guy?!")
  If(0,4,0)
   ShowMessageFace("alice_fc6",0,0,2,63)
   ShowMessage("\\n<Alice>What is this monster?!")
   0()
  EndIf()
  If(0,5,0)
   ShowMessageFace("iriasu_fc4",5,0,2,64)
   ShowMessage("\\n<Ilias>No way... it can't be...?!")
   0()
  EndIf()
  ShowMessageFace("",0,0,2,65)
  ShowMessage("There's no doubt, this is the monster the fairy and the elf mentioned. However, they said he doesn't attack anyone...")
  ShowMessageFace("heinrich_fc2",0,0,2,66)
  ShowMessage("\\n<Armored Berserker>ANGEL... ANGEL... ANGELLLLLlllll!!")
  ShowMessageFace("heinrich_fc2",0,0,2,67)
  ShowMessage("\\n<Armored Berserker>ANGELANGELANGELANGELANGELANGELANGELANGELANGELANGELANGELANGELANGEL!! ANGELANGELANGELANGELANGELANGELANGELLLLLLL!!")
  ShowMessageFace("ruka_fc1",0,0,2,68)
  ShowMessage("\\n<Luka>Hey... this isn't like what they said! He's clearly attacking us!")
  If(0,4,0)
   ShowMessageFace("alice_fc6",1,0,2,69)
   ShowMessage("\\n<Alice>There's no time to be shaken! Let's fight back!")
   0()
  EndIf()
  If(0,5,0)
   ShowMessageFace("iriasu_fc4",7,0,2,70)
   ShowMessage("\\n<Ilias>He's attacking in reaction to holy energy! To Luka and I there's no worse enemy!")
   0()
  EndIf()
  ShowMessageFace("heinrich_fc2",0,0,2,71)
  ShowMessage("\\n<Armored Berserker>DESTROY, ANGELS... ANGELANGELANGELANGELANGELLlll...! DESTROYDESTROYDESTROYDESTROYDESTROYDESTROYDESTROYDESTROYDESTROYDESTROY...!!")
  PictureClear(5)
  SetBattleBGM(bytes(0x04,0x08,0x6f,0x3a,0x0d,0x52,0x50,0x47,0x3a,0x3a,0x42,0x47,0x4d,0x08,0x3a,0x0a,0x40,0x6e,0x61,0x6d,0x65,0x49,0x22,0x0a,0x62,0x6f,0x73,0x73,0x33,0x06,0x3a,0x06,0x45,0x54,0x3a,0x0c,0x40,0x76,0x6f,0x6c,0x75,0x6d,0x65,0x69,0x69,0x3a,0x0b,0x40,0x70,0x69,0x74,0x63,0x68,0x69,0x69))
  RunCommonEvent(10)
  Battle(0,213,false,false)
  RunCommonEvent(11)
  SetBattleBGM(bytes(0x04,0x08,0x6f,0x3a,0x0d,0x52,0x50,0x47,0x3a,0x3a,0x42,0x47,0x4d,0x08,0x3a,0x0a,0x40,0x6e,0x61,0x6d,0x65,0x49,0x22,0x0b,0x62,0x61,0x74,0x74,0x6c,0x65,0x06,0x3a,0x06,0x45,0x54,0x3a,0x0c,0x40,0x76,0x6f,0x6c,0x75,0x6d,0x65,0x69,0x69,0x3a,0x0b,0x40,0x70,0x69,0x74,0x63,0x68,0x69,0x69))
  ChangeSwitch(31,31,1)
  ChangeSwitch(2320,2320,0)
  241(bytes(0x04,0x08,0x6f,0x3a,0x0d,0x52,0x50,0x47,0x3a,0x3a,0x42,0x47,0x4d,0x08,0x3a,0x0a,0x40,0x6e,0x61,0x6d,0x65,0x49,0x22,0x14,0x73,0x63,0x65,0x6e,0x65,0x5f,0x65,0x70,0x69,0x6c,0x6f,0x67,0x75,0x65,0x32,0x06,0x3a,0x06,0x45,0x54,0x3a,0x0c,0x40,0x76,0x6f,0x6c,0x75,0x6d,0x65,0x69,0x69,0x3a,0x0b,0x40,0x70,0x69,0x74,0x63,0x68,0x69,0x69))
  314(0,0)
  355("gain_medal(3001)")
  ShowMessageFace("ruka_fc1",0,0,2,72)
  ShowMessage("\\n<Luka>Phew, that surprised me.")
  If(12,"actor_class_level_over?(1, 362, 1)")
   0()
  Else()
   ShowMessageFace("",0,0,2,73)
   ShowMessage("By overcoming such a formidable enemy, a hidden power awakens within Luka...")
   250(bytes(0x04,0x08,0x6f,0x3a,0x0c,0x52,0x50,0x47,0x3a,0x3a,0x53,0x45,0x08,0x3a,0x0a,0x40,0x6e,0x61,0x6d,0x65,0x49,0x22,0x0b,0x53,0x61,0x69,0x6e,0x74,0x37,0x06,0x3a,0x06,0x45,0x54,0x3a,0x0b,0x40,0x70,0x69,0x74,0x63,0x68,0x69,0x69,0x3a,0x0c,0x40,0x76,0x6f,0x6c,0x75,0x6d,0x65,0x69,0x55))
   355("set_class_level(1, 362, 1, false, true)")
   ShowMessageFace("",0,0,2,74)
   ShowMessage("Luka has become a Lowly Angel!")
   0()
  EndIf()
  If(0,4,0)
   ShowMessageFace("alice_fc5",3,0,2,75)
   ShowMessage("\\n<Alice>No way, I can hardly believe we beat it...")
   0()
  EndIf()
  If(0,5,0)
   ShowMessageFace("iriasu_fc4",2,0,2,76)
   ShowMessage("\\n<Ilias>No way, I can hardly believe we prevailed...")
   0()
  EndIf()
  ShowMessageFace("ruka_fc1",0,0,2,77)
  ShowMessage("\\n<Luka>It was a strange opponent, but... In any case, I managed to properly form a contract with Sylph.")
  RunCommonEvent(306)
  355("gain_medal(23)")
  EndEventProcessing()
  0()
 PAGE   2
  // condition: variable 1001 >= 16
  0()



EVENT   60
 PAGE   1
  ShowMessageFace("fairy_fc1",0,0,2,1)
  ShowMessage("\\n<Fairy>Yaay, playing in the river. ♪")
  355("actor_label_jump")
  EndEventProcessing()
  DefineLabel("98")
  ShowMessageFace("minikani_fc1",0,0,2,2)
  ShowMessage("\\n<Amy>I'll play in the river too. ♪ *wash* *wash*, *bubble* *bubble*...")
  EndEventProcessing()
  DefineLabel("542")
  ShowMessageFace("domeima_fc1",0,0,2,3)
  ShowMessage("\\n<Domaimer>Wa... ter...")
  EndEventProcessing()
  0()



EVENT   61
 PAGE   1
  ChangeSelfSwitch("A",0)
  205(-1,bytes(0x04,0x08,0x6f,0x3a,0x13,0x52,0x50,0x47,0x3a,0x3a,0x4d,0x6f,0x76,0x65,0x52,0x6f,0x75,0x74,0x65,0x09,0x3a,0x0c,0x40,0x72,0x65,0x70,0x65,0x61,0x74,0x46,0x3a,0x0f,0x40,0x73,0x6b,0x69,0x70,0x70,0x61,0x62,0x6c,0x65,0x46,0x3a,0x0a,0x40,0x77,0x61,0x69,0x74,0x54,0x3a,0x0a,0x40,0x6c,0x69,0x73,0x74,0x5b,0x07,0x6f,0x3a,0x15,0x52,0x50,0x47,0x3a,0x3a,0x4d,0x6f,0x76,0x65,0x43,0x6f,0x6d,0x6d,0x61,0x6e,0x64,0x07,0x3a,0x0a,0x40,0x63,0x6f,0x64,0x65,0x69,0x16,0x3a,0x10,0x40,0x70,0x61,0x72,0x61,0x6d,0x65,0x74,0x65,0x72,0x73,0x5b,0x00,0x6f,0x3b,0x0a,0x07,0x3b,0x0b,0x69,0x00,0x3b,0x0c,0x5b,0x00))
  ShowMessageFace("ruka_fc1",0,0,2,1)
  ShowMessage("\\n<Luka>Oh? It seems like we can pass through the shallow part of this river.")
  0()
 PAGE   2
  // condition: self-switch A is ON
  0()



EVENT   62
 PAGE   1
  // condition: variable 1001 >= 15
  If(1,1001,0,14,2)
   ShowMessageFace("fairys_fc1",1,0,2,1)
   ShowMessage("\\n<Fairy>I was told I shouldn't talk to strangers...")
   EndEventProcessing()
   0()
  EndIf()
  If(1,1001,0,15,0)
   If(2,"A",1)
    ChangeSelfSwitch("A",0)
    ShowMessageFace("fairys_fc1",1,0,2,2)
    ShowMessage("\\n<Fairy>Recently, a scary monster started appearing in this forest. It doesn't attack us, but it's very, very scary...")
    ShowMessageFace("ruka_fc1",0,0,2,3)
    ShowMessage("\\n<Luka>A scary monster? If it's up to no good, we can't leave it alone...")
    ShowMessageFace("",0,0,2,4)
    ShowMessage("But she said it doesn't attack anyone. Maybe they're just discriminating against it because it looks scary.")
    ShowMessageFace("ruka_fc1",0,0,2,5)
    ShowMessage("\\n<Luka>If I find it, I'll try talking first. If it turns out to be bad, I'll deal with it then.")
    ShowMessageFace("fairys_fc1",0,0,2,6)
    ShowMessage("\\n<Fairy>Thank you! I'll give you this. ♪")
    250(bytes(0x04,0x08,0x6f,0x3a,0x0c,0x52,0x50,0x47,0x3a,0x3a,0x53,0x45,0x08,0x3a,0x0a,0x40,0x6e,0x61,0x6d,0x65,0x49,0x22,0x0a,0x49,0x74,0x65,0x6d,0x31,0x06,0x3a,0x06,0x45,0x54,0x3a,0x0b,0x40,0x70,0x69,0x74,0x63,0x68,0x69,0x69,0x3a,0x0c,0x40,0x76,0x6f,0x6c,0x75,0x6d,0x65,0x69,0x55))
    ChangeSelfSwitch("A",0)
    ChangeInventory_Item(28,0,0,1)
    ShowMessageFace("fairys_fc1",0,0,2,7)
    ShowMessage("\\n<Fairy>Be careful, that monster is really scary...")
    EndEventProcessing()
    0()
   Else()
    ShowMessageFace("fairys_fc1",0,0,2,8)
    ShowMessage("\\n<Fairy>Be careful, that monster is really scary...")
    EndEventProcessing()
    0()
   EndIf()
   0()
  EndIf()
  If(1,1001,0,16,1)
   ShowMessageFace("fairys_fc1",0,0,2,9)
   ShowMessage("\\n<Fairy>The monster stopped appearing lately. ♪ Did someone beat it up...?")
   EndEventProcessing()
   0()
  EndIf()
  0()



EVENT   63
 PAGE   1
  // condition: variable 1001 >= 15
  If(1,1001,0,14,2)
   ShowMessageFace("elf_fc2",0,0,2,1)
   ShowMessage("\\n<Elf>Good grief, this is troubling... Huh? It's none of your business, human.")
   EndEventProcessing()
   0()
  EndIf()
  If(1,1001,0,15,0)
   If(2,"A",1)
    ChangeSelfSwitch("A",0)
    ShowMessageFace("elf_fc2",0,0,2,2)
    ShowMessage("\\n<Elf>Wah, an enemy?! ...Wait, it's just a human.")
    ShowMessageFace("elf_fc2",0,0,2,3)
    ShowMessage("\\n<Elf>Recently, a spooky monster has been haunting the forest. It's not attacking us, but everyone's scared.")
    ShowMessageFace("ruka_fc1",0,0,2,4)
    ShowMessage("\\n<Luka>But if it doesn't attack you, maybe it only looks spooky and is actually harmless?")
    ShowMessageFace("elf_fc2",0,0,2,5)
    ShowMessage("\\n<Elf>Well, you're not wrong, but... its appearance is clearly abnormal.")
    ShowMessageFace("ruka_fc1",0,0,2,6)
    ShowMessage("\\n<Luka>If I find it, I'll try to persuade it to stop scaring everyone. If it really doesn't want to hurt anyone, I'm sure it will understand.")
    ShowMessageFace("elf_fc2",2,0,2,7)
    ShowMessage("\\n<Elf>I don't think so, but... Well, fine. Take this.")
    250(bytes(0x04,0x08,0x6f,0x3a,0x0c,0x52,0x50,0x47,0x3a,0x3a,0x53,0x45,0x08,0x3a,0x0a,0x40,0x6e,0x61,0x6d,0x65,0x49,0x22,0x0a,0x49,0x74,0x65,0x6d,0x31,0x06,0x3a,0x06,0x45,0x54,0x3a,0x0b,0x40,0x70,0x69,0x74,0x63,0x68,0x69,0x69,0x3a,0x0c,0x40,0x76,0x6f,0x6c,0x75,0x6d,0x65,0x69,0x55))
    ChangeSelfSwitch("A",0)
    ChangeInventory_Item(5,0,0,1)
    EndEventProcessing()
    0()
   Else()
    ShowMessageFace("elf_fc2",2,0,2,8)
    ShowMessage("\\n<Elf>Don't force yourself to fight it. It clearly isn't a normal opponent...")
    EndEventProcessing()
    0()
   EndIf()
   0()
  EndIf()
  If(1,1001,0,16,1)
   ShowMessageFace("elf_fc2",0,0,2,9)
   ShowMessage("\\n<Elf>That monster disappeared... Could it be that you got rid of it?")
   EndEventProcessing()
   0()
  EndIf()
  0()



EVENT   64
 PAGE   1
  // condition: switch 31 is ON
  0()



EVENT   65
 PAGE   1
  // condition: switch 32 is ON
  0()



EVENT   66
 PAGE   1
  // condition: switch 33 is ON
  0()



EVENT   67
 PAGE   1
  // condition: switch 2089 is ON
  ChangeSwitch(2089,2089,1)
  PictureDisplay(5,"80_heinrich_st11",0,0,0,0,100,100,0,0)
  PictureMove(5,null,0,0,0,0,100,100,255,0,30,true)
  241(bytes(0x04,0x08,0x6f,0x3a,0x0d,0x52,0x50,0x47,0x3a,0x3a,0x42,0x47,0x4d,0x08,0x3a,0x0a,0x40,0x6e,0x61,0x6d,0x65,0x49,0x22,0x0a,0x62,0x6f,0x73,0x73,0x30,0x06,0x3a,0x06,0x45,0x54,0x3a,0x0c,0x40,0x76,0x6f,0x6c,0x75,0x6d,0x65,0x69,0x69,0x3a,0x0b,0x40,0x70,0x69,0x74,0x63,0x68,0x69,0x69))
  ShowMessageFace("ruka_fc1",0,0,2,1)
  ShowMessage("\\n<Luka>Uuh... how strong...")
  ShowMessageFace("heinrich_fc2",0,0,2,2)
  ShowMessage("\\n<Armored Berserker>ANGELL... DESTROYyyy...")
  250(bytes(0x04,0x08,0x6f,0x3a,0x0c,0x52,0x50,0x47,0x3a,0x3a,0x53,0x45,0x08,0x3a,0x0a,0x40,0x6e,0x61,0x6d,0x65,0x49,0x22,0x11,0x6d,0x6f,0x6e,0x5f,0x6b,0x61,0x72,0x61,0x62,0x75,0x72,0x69,0x06,0x3a,0x06,0x45,0x54,0x3a,0x0b,0x40,0x70,0x69,0x74,0x63,0x68,0x69,0x69,0x3a,0x0c,0x40,0x76,0x6f,0x6c,0x75,0x6d,0x65,0x69,0x69))
  ShowMessageFace("",0,0,2,3)
  ShowMessage("Aiming at the fallen Luka, the Armored Berserker swings his sword down!")
  PictureClear(5)
  241(bytes(0x04,0x08,0x6f,0x3a,0x0d,0x52,0x50,0x47,0x3a,0x3a,0x42,0x47,0x4d,0x08,0x3a,0x0a,0x40,0x6e,0x61,0x6d,0x65,0x49,0x22,0x00,0x06,0x3a,0x06,0x45,0x54,0x3a,0x0c,0x40,0x76,0x6f,0x6c,0x75,0x6d,0x65,0x69,0x69,0x3a,0x0b,0x40,0x70,0x69,0x74,0x63,0x68,0x69,0x69))
  250(bytes(0x04,0x08,0x6f,0x3a,0x0c,0x52,0x50,0x47,0x3a,0x3a,0x53,0x45,0x08,0x3a,0x0a,0x40,0x6e,0x61,0x6d,0x65,0x49,0x22,0x0b,0x53,0x6b,0x69,0x6c,0x6c,0x32,0x06,0x3a,0x06,0x45,0x54,0x3a,0x0b,0x40,0x70,0x69,0x74,0x63,0x68,0x69,0x69,0x3a,0x0c,0x40,0x76,0x6f,0x6c,0x75,0x6d,0x65,0x69,0x55))
  223(bytes(0x04,0x08,0x75,0x3a,0x09,0x54,0x6f,0x6e,0x65,0x25,0x00,0x00,0x00,0x00,0x00,0x00,0x59,0xc0,0x00,0x00,0x00,0x00,0x00,0x00,0x59,0xc0,0x00,0x00,0x00,0x00,0x00,0x00,0x59,0xc0,0x00,0x00,0x00,0x00,0x00,0x00,0x00,0x00),30,true)
  250(bytes(0x04,0x08,0x6f,0x3a,0x0c,0x52,0x50,0x47,0x3a,0x3a,0x53,0x45,0x08,0x3a,0x0a,0x40,0x6e,0x61,0x6d,0x65,0x49,0x22,0x0e,0x6d,0x6f,0x6e,0x5f,0x62,0x72,0x65,0x61,0x6b,0x06,0x3a,0x06,0x45,0x54,0x3a,0x0b,0x40,0x70,0x69,0x74,0x63,0x68,0x69,0x69,0x3a,0x0c,0x40,0x76,0x6f,0x6c,0x75,0x6d,0x65,0x69,0x69))
  ChangeSwitch(32,32,0)
  PictureDisplay(5,"80_nero_st01b",0,0,0,0,100,100,0,0)
  ShowMessageFace("nero_fc1",0,0,2,4)
  ShowMessage("\\n<Nero>I won't let you!")
  ShowMessageFace("",0,0,2,5)
  ShowMessage("Time stopped! Nero caught the Armored Berserker's sword!")
  PictureClear(5)
  Wait(15)
  223(bytes(0x04,0x08,0x75,0x3a,0x09,0x54,0x6f,0x6e,0x65,0x25,0x00,0x00,0x00,0x00,0x00,0x00,0x00,0x00,0x00,0x00,0x00,0x00,0x00,0x00,0x00,0x00,0x00,0x00,0x00,0x00,0x00,0x00,0x00,0x00,0x00,0x00,0x00,0x00,0x00,0x00,0x00,0x00),30,true)
  241(bytes(0x04,0x08,0x6f,0x3a,0x0d,0x52,0x50,0x47,0x3a,0x3a,0x42,0x47,0x4d,0x08,0x3a,0x0a,0x40,0x6e,0x61,0x6d,0x65,0x49,0x22,0x0a,0x62,0x6f,0x73,0x73,0x30,0x06,0x3a,0x06,0x45,0x54,0x3a,0x0c,0x40,0x76,0x6f,0x6c,0x75,0x6d,0x65,0x69,0x69,0x3a,0x0b,0x40,0x70,0x69,0x74,0x63,0x68,0x69,0x69))
  250(bytes(0x04,0x08,0x6f,0x3a,0x0c,0x52,0x50,0x47,0x3a,0x3a,0x53,0x45,0x08,0x3a,0x0a,0x40,0x6e,0x61,0x6d,0x65,0x49,0x22,0x0d,0x6d,0x6f,0x6e,0x5f,0x77,0x61,0x72,0x70,0x06,0x3a,0x06,0x45,0x54,0x3a,0x0b,0x40,0x70,0x69,0x74,0x63,0x68,0x69,0x69,0x3a,0x0c,0x40,0x76,0x6f,0x6c,0x75,0x6d,0x65,0x69,0x69))
  ChangeSwitch(33,33,0)
  Wait(15)
  PictureDisplay(5,"80_neris_st03b",0,0,0,0,100,100,0,0)
  PictureMove(5,null,0,0,0,0,100,100,255,0,30,true)
  ShowMessageFace("neris_fc1",2,0,2,6)
  ShowMessage("\\n<Neris>Hey, Luka, are you okay?!")
  PictureDisplay(5,"80_nero_st01b",0,0,-150,0,100,100,255,0)
  PictureDisplay(6,"80_neris_st03b",0,0,150,0,100,100,255,0)
  ShowMessageFace("nero_fc1",0,0,2,7)
  ShowMessage("\\n<Nero>They've taken a lot of damage... Neris, bring them to a safe place.")
  PictureClear(6)
  PictureDisplay(5,"80_heinrich_st11",0,0,0,0,100,100,255,0)
  ShowMessageFace("heinrich_fc2",0,0,2,8)
  ShowMessage("\\n<Armored Berserker>OOooOOo... OOOooOOooOOO! ANGELANGELANGELANGELLlll....!!")
  PictureDisplay(5,"80_nero_st01b",0,0,-150,0,100,100,255,0)
  PictureDisplay(6,"80_neris_st03b",0,0,150,0,100,100,255,0)
  ShowMessageFace("neris_fc1",2,0,2,9)
  ShowMessage("\\n<Neris>Can I leave that thing to you, bro?")
  ShowMessageFace("nero_fc1",0,0,2,10)
  ShowMessage("\\n<Nero>No problem. I'll take him on.")
  ShowMessageFace("neris_fc1",0,0,2,11)
  ShowMessage("\\n<Neris>Then leave Luka and his tag-alongs to me!!")
  PictureClear(5)
  PictureClear(6)
  Wait(15)
  250(bytes(0x04,0x08,0x6f,0x3a,0x0c,0x52,0x50,0x47,0x3a,0x3a,0x53,0x45,0x08,0x3a,0x0a,0x40,0x6e,0x61,0x6d,0x65,0x49,0x22,0x0d,0x6d,0x6f,0x6e,0x5f,0x77,0x61,0x72,0x70,0x06,0x3a,0x06,0x45,0x54,0x3a,0x0b,0x40,0x70,0x69,0x74,0x63,0x68,0x69,0x69,0x3a,0x0c,0x40,0x76,0x6f,0x6c,0x75,0x6d,0x65,0x69,0x69))
  ChangeSwitch(33,33,1)
  205(-1,bytes(0x04,0x08,0x6f,0x3a,0x13,0x52,0x50,0x47,0x3a,0x3a,0x4d,0x6f,0x76,0x65,0x52,0x6f,0x75,0x74,0x65,0x09,0x3a,0x0c,0x40,0x72,0x65,0x70,0x65,0x61,0x74,0x46,0x3a,0x0f,0x40,0x73,0x6b,0x69,0x70,0x70,0x61,0x62,0x6c,0x65,0x46,0x3a,0x0a,0x40,0x77,0x61,0x69,0x74,0x54,0x3a,0x0a,0x40,0x6c,0x69,0x73,0x74,0x5b,0x07,0x6f,0x3a,0x15,0x52,0x50,0x47,0x3a,0x3a,0x4d,0x6f,0x76,0x65,0x43,0x6f,0x6d,0x6d,0x61,0x6e,0x64,0x07,0x3a,0x0a,0x40,0x63,0x6f,0x64,0x65,0x69,0x2c,0x3a,0x10,0x40,0x70,0x61,0x72,0x61,0x6d,0x65,0x74,0x65,0x72,0x73,0x5b,0x00,0x6f,0x3b,0x0a,0x07,0x3b,0x0b,0x69,0x00,0x3b,0x0c,0x5b,0x00))
  Wait(15)
  ShowMessageFace("nero_fc1",0,0,2,12)
  ShowMessage("\\n<Nero>Now...")
  PictureDisplay(5,"80_heinrich_st11",0,0,0,0,100,100,0,0)
  PictureMove(5,null,0,0,0,0,100,100,255,0,30,true)
  ShowMessageFace("heinrich_fc2",0,0,2,13)
  ShowMessage("\\n<Armored Berserker>ANGEL... ANGEL... ANGELLLllllll!!")
  ShowMessageFace("nero_fc1",0,0,2,14)
  ShowMessage("\\n<Nero>My apologies, but I will show you no mercy. I'm sure this berserk state has been forced on you against your will, but...")
  250(bytes(0x04,0x08,0x6f,0x3a,0x0c,0x52,0x50,0x47,0x3a,0x3a,0x53,0x45,0x08,0x3a,0x0a,0x40,0x6e,0x61,0x6d,0x65,0x49,0x22,0x0b,0x4d,0x61,0x67,0x69,0x63,0x31,0x06,0x3a,0x06,0x45,0x54,0x3a,0x0b,0x40,0x70,0x69,0x74,0x63,0x68,0x69,0x69,0x3a,0x0c,0x40,0x76,0x6f,0x6c,0x75,0x6d,0x65,0x69,0x55))
  PictureDisplay(5,"ct_nero3",0,0,0,0,100,100,255,0)
  ShowMessageFace("nero_fc1",0,0,2,15)
  ShowMessage("\\n<Nero>Regardless of what my body is, I command the holy and the dark. The yoke of heavens, the calamity of earth, the one who manages the rules of all creation...")
  250(bytes(0x04,0x08,0x6f,0x3a,0x0c,0x52,0x50,0x47,0x3a,0x3a,0x53,0x45,0x08,0x3a,0x0a,0x40,0x6e,0x61,0x6d,0x65,0x49,0x22,0x0e,0x44,0x61,0x72,0x6b,0x6e,0x65,0x73,0x73,0x31,0x06,0x3a,0x06,0x45,0x54,0x3a,0x0b,0x40,0x70,0x69,0x74,0x63,0x68,0x69,0x69,0x3a,0x0c,0x40,0x76,0x6f,0x6c,0x75,0x6d,0x65,0x69,0x55))
  PictureDisplay(10,"sys_white",0,0,0,0,100,100,0,0)
  PictureMove(10,null,0,0,0,0,100,100,255,0,30,true)
  250(bytes(0x04,0x08,0x6f,0x3a,0x0c,0x52,0x50,0x47,0x3a,0x3a,0x53,0x45,0x08,0x3a,0x0a,0x40,0x6e,0x61,0x6d,0x65,0x49,0x22,0x0f,0x6d,0x6f,0x6e,0x5f,0x65,0x61,0x72,0x74,0x68,0x31,0x06,0x3a,0x06,0x45,0x54,0x3a,0x0b,0x40,0x70,0x69,0x74,0x63,0x68,0x69,0x69,0x3a,0x0c,0x40,0x76,0x6f,0x6c,0x75,0x6d,0x65,0x69,0x69))
  PictureDisplay(5,"ct_nero4",0,0,0,0,100,100,255,0)
  PictureMove(10,null,0,0,0,0,100,100,0,0,30,true)
  PictureClear(10)
  ShowMessageFace("nero_fc2",0,0,2,16)
  ShowMessage("\\n<Nero>The one whose footsteps of victory engrave anxiety in others! The morning star of the heavens, the unlucky star of the land!")
  PictureDisplay(5,"80_nero_st11b",0,0,0,0,100,100,255,0)
  ShowMessageFace("nero_fc2",0,0,2,17)
  ShowMessage("\\n<Nero>I will take you on with all my strength! Here I come, hero Heinrich!")
  ShowMessageFace("heinrich_fc2",0,0,2,18)
  ShowMessage("\\n<Armored Berserker>WWWOOOOOoOooOOOOO! ANGELANGELANGELLLLllLl!!")
  PictureClear(5)
  355("set_temp_actors(701)")
  SetBattleBGM(bytes(0x04,0x08,0x6f,0x3a,0x0d,0x52,0x50,0x47,0x3a,0x3a,0x42,0x47,0x4d,0x08,0x3a,0x0a,0x40,0x6e,0x61,0x6d,0x65,0x49,0x22,0x09,0x72,0x75,0x6b,0x61,0x06,0x3a,0x06,0x45,0x54,0x3a,0x0c,0x40,0x76,0x6f,0x6c,0x75,0x6d,0x65,0x69,0x69,0x3a,0x0b,0x40,0x70,0x69,0x74,0x63,0x68,0x69,0x69))
  Battle(0,213,false,false)
  RunCommonEvent(11)
  SetBattleBGM(bytes(0x04,0x08,0x6f,0x3a,0x0d,0x52,0x50,0x47,0x3a,0x3a,0x42,0x47,0x4d,0x08,0x3a,0x0a,0x40,0x6e,0x61,0x6d,0x65,0x49,0x22,0x0b,0x62,0x61,0x74,0x74,0x6c,0x65,0x06,0x3a,0x06,0x45,0x54,0x3a,0x0c,0x40,0x76,0x6f,0x6c,0x75,0x6d,0x65,0x69,0x69,0x3a,0x0b,0x40,0x70,0x69,0x74,0x63,0x68,0x69,0x69))
  355("release_temp_actors")
  ShowMessageFace("heinrich_fc2",0,0,2,19)
  ShowMessage("\\n<Armored Berserker>WWWOOOoOOooooo...")
  250(bytes(0x04,0x08,0x6f,0x3a,0x0c,0x52,0x50,0x47,0x3a,0x3a,0x53,0x45,0x08,0x3a,0x0a,0x40,0x6e,0x61,0x6d,0x65,0x49,0x22,0x10,0x6d,0x6f,0x6e,0x5f,0x73,0x79,0x6f,0x6d,0x65,0x74,0x75,0x06,0x3a,0x06,0x45,0x54,0x3a,0x0b,0x40,0x70,0x69,0x74,0x63,0x68,0x69,0x69,0x3a,0x0c,0x40,0x76,0x6f,0x6c,0x75,0x6d,0x65,0x69,0x55))
  ChangeSwitch(31,31,1)
  ShowMessageFace("",0,0,2,20)
  ShowMessage("The Armored Berserker turned into particles and disappeared.")
  ShowMessageFace("nero_fc1",0,0,2,21)
  ShowMessage("\\n<Nero>He wasn't destroyed... As long as his soul is separated, the holy husk will go berserk again and again.")
  ShowMessageFace("nero_fc1",0,0,2,22)
  ShowMessage("\\n<Nero>......")
  Wait(30)
  ShowSpeechBalloon(65,8,true)
  ShowMessageFace("nero_fc1",2,0,2,23)
  ShowMessage("\\n<Nero>That Neris... She didn't dump Luka's comrades somewhere, did she?")
  Wait(60)
  242(1)
  221()
  ChangeSwitch(33,33,1)
  PictureClear(5)
  PictureClear(6)
  Wait(240)
  211(1)
  241(bytes(0x04,0x08,0x6f,0x3a,0x0d,0x52,0x50,0x47,0x3a,0x3a,0x42,0x47,0x4d,0x08,0x3a,0x0a,0x40,0x6e,0x61,0x6d,0x65,0x49,0x22,0x0b,0x65,0x6e,0x72,0x69,0x6b,0x61,0x06,0x3a,0x06,0x45,0x54,0x3a,0x0c,0x40,0x76,0x6f,0x6c,0x75,0x6d,0x65,0x69,0x69,0x3a,0x0b,0x40,0x70,0x69,0x74,0x63,0x68,0x69,0x69))
  TeleportPlayer(0,626,1,0,0,2)
  0()



EVENT   68
 PAGE   1
  ShowMessageFace("fairys_fc1",0,0,2,1)
  ShowMessage("\\n<Fairy>Pain, pain, go away!")
  250(bytes(0x04,0x08,0x6f,0x3a,0x0c,0x52,0x50,0x47,0x3a,0x3a,0x53,0x45,0x08,0x3a,0x0a,0x40,0x6e,0x61,0x6d,0x65,0x49,0x22,0x0a,0x48,0x65,0x61,0x6c,0x37,0x06,0x3a,0x06,0x45,0x54,0x3a,0x0b,0x40,0x70,0x69,0x74,0x63,0x68,0x69,0x69,0x3a,0x0c,0x40,0x76,0x6f,0x6c,0x75,0x6d,0x65,0x69,0x55))
  224(bytes(0x04,0x08,0x75,0x3a,0x0a,0x43,0x6f,0x6c,0x6f,0x72,0x25,0x00,0x00,0x00,0x00,0x00,0xe0,0x6f,0x40,0x00,0x00,0x00,0x00,0x00,0xe0,0x6f,0x40,0x00,0x00,0x00,0x00,0x00,0xe0,0x6f,0x40,0x00,0x00,0x00,0x00,0x00,0xe0,0x6f,0x40),30,true)
  314(0,0)
  ShowMessageFace("",0,0,2,2)
  ShowMessage("The party's HP and MP have been fully recovered!")
  0()



EVENT   69
 PAGE   1
  250(bytes(0x04,0x08,0x6f,0x3a,0x0c,0x52,0x50,0x47,0x3a,0x3a,0x53,0x45,0x08,0x3a,0x0a,0x40,0x6e,0x61,0x6d,0x65,0x49,0x22,0x0a,0x43,0x68,0x65,0x73,0x74,0x06,0x3a,0x06,0x45,0x54,0x3a,0x0b,0x40,0x70,0x69,0x74,0x63,0x68,0x69,0x69,0x3a,0x0c,0x40,0x76,0x6f,0x6c,0x75,0x6d,0x65,0x69,0x55))
  205(0,bytes(0x04,0x08,0x6f,0x3a,0x13,0x52,0x50,0x47,0x3a,0x3a,0x4d,0x6f,0x76,0x65,0x52,0x6f,0x75,0x74,0x65,0x09,0x3a,0x0c,0x40,0x72,0x65,0x70,0x65,0x61,0x74,0x46,0x3a,0x0f,0x40,0x73,0x6b,0x69,0x70,0x70,0x61,0x62,0x6c,0x65,0x46,0x3a,0x0a,0x40,0x77,0x61,0x69,0x74,0x54,0x3a,0x0a,0x40,0x6c,0x69,0x73,0x74,0x5b,0x0b,0x6f,0x3a,0x15,0x52,0x50,0x47,0x3a,0x3a,0x4d,0x6f,0x76,0x65,0x43,0x6f,0x6d,0x6d,0x61,0x6e,0x64,0x07,0x3a,0x0a,0x40,0x63,0x6f,0x64,0x65,0x69,0x29,0x3a,0x10,0x40,0x70,0x61,0x72,0x61,0x6d,0x65,0x74,0x65,0x72,0x73,0x5b,0x00,0x6f,0x3b,0x0a,0x07,0x3b,0x0b,0x69,0x16,0x3b,0x0c,0x5b,0x00,0x6f,0x3b,0x0a,0x07,0x3b,0x0b,0x69,0x14,0x3b,0x0c,0x5b,0x06,0x69,0x08,0x6f,0x3b,0x0a,0x07,0x3b,0x0b,0x69,0x17,0x3b,0x0c,0x5b,0x00,0x6f,0x3b,0x0a,0x07,0x3b,0x0b,0x69,0x14,0x3b,0x0c,0x5b,0x06,0x69,0x08,0x6f,0x3b,0x0a,0x07,0x3b,0x0b,0x69,0x00,0x3b,0x0c,0x5b,0x00))
  ChangeSelfSwitch("A",0)
  ChangeInventory_Item(450,0,0,1)
  0()
 PAGE   2
  // condition: self-switch A is ON
  0()



EVENT   70
 PAGE   1
  // condition: switch 1012 is ON
  // condition: variable 1047 >= 0
  // condition: party contains actor #167
  ChangeVariable(1047,1047,0,0,1)
  ShowMessageFace("lusia_fc1",0,0,2,1)
  ShowMessage("\\n<Lucia>The power of wind gathers here, I see. I can feel the circulation of natural energy.")
  ShowMessageFace("lusia_fc1",0,0,2,2)
  ShowMessage("\\n<Lucia>Can you give me a little time? I want to collect observational data on the spirits.")
  If(0,6,0)
   ShowMessageFace("sonia_fc2",2,0,2,3)
   ShowMessage("\\n<Sonya>It's fine, but... how are you gonna do that?")
   0()
  Else()
   ShowMessageFace("ruka_fc1",0,0,2,4)
   ShowMessage("\\n<Luka>That's fine, but... how are you going to observe them?")
   0()
  EndIf()
  ShowMessageFace("lusia_fc1",0,0,2,5)
  ShowMessage("\\n<Lucia>I have a self-made measurement makina. It doesn't just receive, but also interferes with natural energy...")
  ShowMessageFace("sylph_fc1",7,0,2,6)
  ShowMessage("\\n<Sylph>What?! My ahoge is tingling!")
  ShowMessageFace("lusia_fc1",0,0,2,7)
  ShowMessage("\\n<Lucia>My, an immediate reaction. Let's send an interference wave, then...")
  ShowMessageFace("lusia_fc1",0,0,2,8)
  ShowMessage("\\n<Lucia>Strengthening the interference wave. Two times... Four times... Eight times...")
  ShowMessageFace("sylph_fc1",7,0,2,9)
  ShowMessage("\\n<Sylph>*crackle*...")
  ShowMessageFace("sylph_fc1",7,0,2,10)
  ShowMessage("\\n<Sylph>*crackle* *crackle*...")
  ShowMessageFace("sylph_fc1",7,0,2,11)
  ShowMessage("\\n<Sylph>*crackle* *crackle* *crackle* *crackle*...")
  ShowMessageFace("lusia_fc1",0,0,2,12)
  ShowMessage("\\n<Lucia>The power of wind is growing, isn't it... Now, how will she respond?")
  241(bytes(0x04,0x08,0x6f,0x3a,0x0d,0x52,0x50,0x47,0x3a,0x3a,0x42,0x47,0x4d,0x08,0x3a,0x0a,0x40,0x6e,0x61,0x6d,0x65,0x49,0x22,0x10,0x73,0x63,0x65,0x6e,0x65,0x5f,0x63,0x6f,0x6d,0x69,0x31,0x06,0x3a,0x06,0x45,0x54,0x3a,0x0c,0x40,0x76,0x6f,0x6c,0x75,0x6d,0x65,0x69,0x69,0x3a,0x0b,0x40,0x70,0x69,0x74,0x63,0x68,0x69,0x69))
  ShowMessageFace("sylph_fc1",7,0,2,13)
  ShowMessage("\\n<Sylph>Chi Pa Pa! Chi Pa Pa! Flower on my head! Chi Pa Pa!")
  ShowMessageFace("sylph_fc1",7,0,2,14)
  ShowMessage("\\n<Sylph>Chi Pa Pa! Chi Pa Pa! Sun is spinning! Chi Pa Pa!")
  If(0,6,0)
   ShowMessageFace("sonia_fc3",2,0,2,15)
   ShowMessage("\\n<Sonya>Sylph broke!")
   0()
  Else()
   ShowMessageFace("ruka_fc1",0,0,2,16)
   ShowMessage("\\n<Luka>......")
   0()
  EndIf()
  ShowMessageFace("lusia_fc1",0,0,2,17)
  ShowMessage("\\n<Lucia>...T-this might be an important key. Let's record this song...")
  ShowMessageFace("lusia_fc1",2,0,2,18)
  ShowMessage("\\n<Lucia>...Well, it is strangely catchy.")
  318(0,167,0,2084)
  250(bytes(0x04,0x08,0x6f,0x3a,0x0c,0x52,0x50,0x47,0x3a,0x3a,0x53,0x45,0x08,0x3a,0x0a,0x40,0x6e,0x61,0x6d,0x65,0x49,0x22,0x0a,0x49,0x74,0x65,0x6d,0x31,0x06,0x3a,0x06,0x45,0x54,0x3a,0x0b,0x40,0x70,0x69,0x74,0x63,0x68,0x69,0x69,0x3a,0x0c,0x40,0x76,0x6f,0x6c,0x75,0x6d,0x65,0x69,0x55))
  ShowMessageFace("",0,0,2,19)
  ShowMessage("Sylph learned \\I[184]\\C[1]Chi Pa Pa Song\\C[0]...")
  ShowMessageFace("sylph_fc1",7,0,2,20)
  ShowMessage("\\n<Sylph>...Ahh?! What was I doing?")
  ShowMessageFace("sylph_fc1",7,0,2,21)
  ShowMessage("\\n<Sylph>My head turned spinny...")
  ShowMessageFace("lusia_fc1",0,0,2,22)
  ShowMessage("\\n<Lucia>It's all right, it was spinny in the first place. Still, I want to collect more detailed data.")
  ShowMessageFace("lusia_fc1",0,0,2,23)
  ShowMessage("\\n<Lucia>Next, let's go to the earth spirit Gnome's dwelling. Can you take me to the Safar Desert?")
  ShowMessageFace("sylph_fc1",7,0,2,24)
  ShowMessage("\\n<Sylph>*crackle* *crackle*...")
  If(0,6,0)
   ShowMessageFace("sonia_fc2",2,0,2,25)
   ShowMessage("\\n<Sonya>(Are those strange waves still inside her?)")
   0()
  Else()
   ShowMessageFace("ruka_fc1",0,0,2,26)
   ShowMessage("\\n<Luka>(Those strange waves are still inside her...)")
   0()
  EndIf()
  241(bytes(0x04,0x08,0x6f,0x3a,0x0d,0x52,0x50,0x47,0x3a,0x3a,0x42,0x47,0x4d,0x08,0x3a,0x0a,0x40,0x6e,0x61,0x6d,0x65,0x49,0x22,0x19,0x64,0x75,0x6e,0x67,0x65,0x6f,0x6e,0x5f,0x73,0x65,0x69,0x72,0x65,0x69,0x6e,0x6f,0x6d,0x6f,0x72,0x69,0x06,0x3a,0x06,0x45,0x54,0x3a,0x0c,0x40,0x76,0x6f,0x6c,0x75,0x6d,0x65,0x69,0x69,0x3a,0x0b,0x40,0x70,0x69,0x74,0x63,0x68,0x69,0x69))
  EndEventProcessing()
  0()
 PAGE   2
  // condition: variable 1047 >= 1
  0()



EVENT   71
 PAGE   1
  // condition: switch 1012 is ON
  // condition: party contains actor #99
  ChangeSwitch(2141,2141,0)
  ShowMessageFace("namazu_fc1",0,0,2,1)
  ShowMessage("\\n<Gigi>Mmm, I feel wind energy... My barbels are twitching.")
  ShowMessageFace("namazu_fc1",0,0,2,2)
  ShowMessage("\\n<Gigi>I not only have the wisdom of age surpassing a turtle's, but I'm also highly sensitive to nature. If I absorb this wind energy, well...")
  318(0,99,0,3038)
  250(bytes(0x04,0x08,0x6f,0x3a,0x0c,0x52,0x50,0x47,0x3a,0x3a,0x53,0x45,0x08,0x3a,0x0a,0x40,0x6e,0x61,0x6d,0x65,0x49,0x22,0x0a,0x49,0x74,0x65,0x6d,0x31,0x06,0x3a,0x06,0x45,0x54,0x3a,0x0b,0x40,0x70,0x69,0x74,0x63,0x68,0x69,0x69,0x3a,0x0c,0x40,0x76,0x6f,0x6c,0x75,0x6d,0x65,0x69,0x55))
  ShowMessageFace("",0,0,2,3)
  ShowMessage("Gigi learned \\I[157]\\C[1]Squall\\C[0]!")
  ShowMessageFace("namazu_fc1",0,0,2,4)
  ShowMessage("\\n<Gigi>Mm, just like this. Now, let's depart!")
  EndEventProcessing()
  0()
 PAGE   2
  // condition: switch 2141 is ON
  0()



EVENT   72
 PAGE   1
  // condition: switch 2183 is ON
  If(0,2230,1)
   ChangeSwitch(2230,2230,0)
   ShowMessageFace("",0,0,2,1)
   ShowMessage("\\n<Elf>You came again...\nYou wanted to be violated like this, didn't you?")
   ShowMessageFace("",0,0,2,2)
   ShowMessage("\\n<Youth C>Hyaa... L-let me rest...")
   250(bytes(0x04,0x08,0x6f,0x3a,0x0c,0x52,0x50,0x47,0x3a,0x3a,0x53,0x45,0x08,0x3a,0x0a,0x40,0x6e,0x61,0x6d,0x65,0x49,0x22,0x11,0x6d,0x6f,0x6e,0x5f,0x66,0x61,0x6e,0x66,0x61,0x6c,0x65,0x32,0x06,0x3a,0x06,0x45,0x54,0x3a,0x0b,0x40,0x70,0x69,0x74,0x63,0x68,0x69,0x69,0x3a,0x0c,0x40,0x76,0x6f,0x6c,0x75,0x6d,0x65,0x69,0x69))
   ShowMessageFace("",0,0,2,3)
   ShowMessage("One of the youths has been found!")
   ShowMessageFace("ruka_fc1",0,0,2,4)
   ShowMessage("\\n<Luka>Okay, we found Youth C!")
   ShowMessageFace("",0,0,2,5)
   ShowMessage("\\n<Elf>Don't get the wrong idea, this is his punishment.\nI'm teaching his body the wrath of nature.")
   ShowMessageFace("ruka_fc1",0,0,2,6)
   ShowMessage("\\n<Luka>If it's punishment, I guess that's okay...")
   ShowMessageFace("",0,0,2,7)
   ShowMessage("\\n<Elf>Hora, do you realize now...?\nElves will savor your misery as they squeeze out all of your sperm...♪")
   ShowMessageFace("",0,0,2,8)
   ShowMessage("\\n<Youth C>Hyaaaaah!!　I'm drying uuuup!!")
   EndEventProcessing()
   0()
  Else()
   ShowMessageFace("",0,0,2,9)
   ShowMessage("\\n<Elf>Hora, do you realize now...?\nElves will savor your misery as they squeeze out all of your sperm...♪")
   ShowMessageFace("",0,0,2,10)
   ShowMessage("\\n<Youth C>Hyaaaaah!!　I'm drying uuuup!!")
   EndEventProcessing()
   0()
  EndIf()
  0()



EVENT   73
 PAGE   1
  // condition: switch 2183 is ON
  If(0,2230,1)
   ChangeSwitch(2230,2230,0)
   ShowMessageFace("",0,0,2,1)
   ShowMessage("\\n<Elf>You came again...\nYou wanted to be violated like this, didn't you?")
   ShowMessageFace("",0,0,2,2)
   ShowMessage("\\n<Youth C>Hyaa... L-let me rest...")
   250(bytes(0x04,0x08,0x6f,0x3a,0x0c,0x52,0x50,0x47,0x3a,0x3a,0x53,0x45,0x08,0x3a,0x0a,0x40,0x6e,0x61,0x6d,0x65,0x49,0x22,0x11,0x6d,0x6f,0x6e,0x5f,0x66,0x61,0x6e,0x66,0x61,0x6c,0x65,0x32,0x06,0x3a,0x06,0x45,0x54,0x3a,0x0b,0x40,0x70,0x69,0x74,0x63,0x68,0x69,0x69,0x3a,0x0c,0x40,0x76,0x6f,0x6c,0x75,0x6d,0x65,0x69,0x69))
   ShowMessageFace("",0,0,2,3)
   ShowMessage("One of the youths has been found!")
   ShowMessageFace("ruka_fc1",0,0,2,4)
   ShowMessage("\\n<Luka>Okay, we found Youth C!")
   ShowMessageFace("",0,0,2,5)
   ShowMessage("\\n<Elf>Don't get the wrong idea, this is his punishment.\nI'm teaching his body the wrath of nature.")
   ShowMessageFace("ruka_fc1",0,0,2,6)
   ShowMessage("\\n<Luka>If it's punishment, I guess that's okay...")
   ShowMessageFace("",0,0,2,7)
   ShowMessage("\\n<Elf>Hora, do you realize now...?\nElves will savor your misery as they squeeze out all of your sperm...♪")
   ShowMessageFace("",0,0,2,8)
   ShowMessage("\\n<Youth C>Hyaaaaah!!　I'm drying uuuup!!")
   EndEventProcessing()
   0()
  Else()
   ShowMessageFace("",0,0,2,9)
   ShowMessage("\\n<Elf>Hora, do you realize now...?\nElves will savor your misery as they squeeze out all of your sperm...♪")
   ShowMessageFace("",0,0,2,10)
   ShowMessage("\\n<Youth C>Hyaaaaah!!　I'm drying uuuup!!")
   EndEventProcessing()
   0()
  EndIf()
  0()
