﻿
DisplayName "Snow Cave Peaks"



EVENT   1
 PAGE   1
  0()



EVENT   2
 PAGE   1
  250(bytes(0x04,0x08,0x6f,0x3a,0x0c,0x52,0x50,0x47,0x3a,0x3a,0x53,0x45,0x08,0x3a,0x0a,0x40,0x6e,0x61,0x6d,0x65,0x49,0x22,0x09,0x4d,0x6f,0x76,0x65,0x06,0x3a,0x06,0x45,0x54,0x3a,0x0b,0x40,0x70,0x69,0x74,0x63,0x68,0x69,0x69,0x3a,0x0c,0x40,0x76,0x6f,0x6c,0x75,0x6d,0x65,0x69,0x55))
  TeleportPlayer(0,394,39,1,0,0)
  0()



EVENT   3
 PAGE   1
  250(bytes(0x04,0x08,0x6f,0x3a,0x0c,0x52,0x50,0x47,0x3a,0x3a,0x53,0x45,0x08,0x3a,0x0a,0x40,0x6e,0x61,0x6d,0x65,0x49,0x22,0x09,0x4d,0x6f,0x76,0x65,0x06,0x3a,0x06,0x45,0x54,0x3a,0x0b,0x40,0x70,0x69,0x74,0x63,0x68,0x69,0x69,0x3a,0x0c,0x40,0x76,0x6f,0x6c,0x75,0x6d,0x65,0x69,0x55))
  TeleportPlayer(0,394,39,1,0,0)
  0()



EVENT   4
 PAGE   1
  250(bytes(0x04,0x08,0x6f,0x3a,0x0c,0x52,0x50,0x47,0x3a,0x3a,0x53,0x45,0x08,0x3a,0x0a,0x40,0x6e,0x61,0x6d,0x65,0x49,0x22,0x09,0x4d,0x6f,0x76,0x65,0x06,0x3a,0x06,0x45,0x54,0x3a,0x0b,0x40,0x70,0x69,0x74,0x63,0x68,0x69,0x69,0x3a,0x0c,0x40,0x76,0x6f,0x6c,0x75,0x6d,0x65,0x69,0x55))
  TeleportPlayer(0,394,39,1,0,0)
  0()



EVENT   5
 PAGE   1
  250(bytes(0x04,0x08,0x6f,0x3a,0x0c,0x52,0x50,0x47,0x3a,0x3a,0x53,0x45,0x08,0x3a,0x0a,0x40,0x6e,0x61,0x6d,0x65,0x49,0x22,0x09,0x4d,0x6f,0x76,0x65,0x06,0x3a,0x06,0x45,0x54,0x3a,0x0b,0x40,0x70,0x69,0x74,0x63,0x68,0x69,0x69,0x3a,0x0c,0x40,0x76,0x6f,0x6c,0x75,0x6d,0x65,0x69,0x55))
  TeleportPlayer(0,395,2,1,2,0)
  0()



EVENT   6
 PAGE   1
  250(bytes(0x04,0x08,0x6f,0x3a,0x0c,0x52,0x50,0x47,0x3a,0x3a,0x53,0x45,0x08,0x3a,0x0a,0x40,0x6e,0x61,0x6d,0x65,0x49,0x22,0x09,0x4d,0x6f,0x76,0x65,0x06,0x3a,0x06,0x45,0x54,0x3a,0x0b,0x40,0x70,0x69,0x74,0x63,0x68,0x69,0x69,0x3a,0x0c,0x40,0x76,0x6f,0x6c,0x75,0x6d,0x65,0x69,0x55))
  TeleportPlayer(0,395,2,1,2,0)
  0()



EVENT   7
 PAGE   1
  250(bytes(0x04,0x08,0x6f,0x3a,0x0c,0x52,0x50,0x47,0x3a,0x3a,0x53,0x45,0x08,0x3a,0x0a,0x40,0x6e,0x61,0x6d,0x65,0x49,0x22,0x09,0x4d,0x6f,0x76,0x65,0x06,0x3a,0x06,0x45,0x54,0x3a,0x0b,0x40,0x70,0x69,0x74,0x63,0x68,0x69,0x69,0x3a,0x0c,0x40,0x76,0x6f,0x6c,0x75,0x6d,0x65,0x69,0x55))
  TeleportPlayer(0,395,2,1,2,0)
  0()



EVENT   8
 PAGE   1
  250(bytes(0x04,0x08,0x6f,0x3a,0x0c,0x52,0x50,0x47,0x3a,0x3a,0x53,0x45,0x08,0x3a,0x0a,0x40,0x6e,0x61,0x6d,0x65,0x49,0x22,0x0a,0x43,0x68,0x65,0x73,0x74,0x06,0x3a,0x06,0x45,0x54,0x3a,0x0b,0x40,0x70,0x69,0x74,0x63,0x68,0x69,0x69,0x3a,0x0c,0x40,0x76,0x6f,0x6c,0x75,0x6d,0x65,0x69,0x55))
  205(0,bytes(0x04,0x08,0x6f,0x3a,0x13,0x52,0x50,0x47,0x3a,0x3a,0x4d,0x6f,0x76,0x65,0x52,0x6f,0x75,0x74,0x65,0x09,0x3a,0x0c,0x40,0x72,0x65,0x70,0x65,0x61,0x74,0x46,0x3a,0x0f,0x40,0x73,0x6b,0x69,0x70,0x70,0x61,0x62,0x6c,0x65,0x46,0x3a,0x0a,0x40,0x77,0x61,0x69,0x74,0x54,0x3a,0x0a,0x40,0x6c,0x69,0x73,0x74,0x5b,0x0b,0x6f,0x3a,0x15,0x52,0x50,0x47,0x3a,0x3a,0x4d,0x6f,0x76,0x65,0x43,0x6f,0x6d,0x6d,0x61,0x6e,0x64,0x07,0x3a,0x0a,0x40,0x63,0x6f,0x64,0x65,0x69,0x29,0x3a,0x10,0x40,0x70,0x61,0x72,0x61,0x6d,0x65,0x74,0x65,0x72,0x73,0x5b,0x00,0x6f,0x3b,0x0a,0x07,0x3b,0x0b,0x69,0x16,0x3b,0x0c,0x5b,0x00,0x6f,0x3b,0x0a,0x07,0x3b,0x0b,0x69,0x14,0x3b,0x0c,0x5b,0x06,0x69,0x08,0x6f,0x3b,0x0a,0x07,0x3b,0x0b,0x69,0x17,0x3b,0x0c,0x5b,0x00,0x6f,0x3b,0x0a,0x07,0x3b,0x0b,0x69,0x14,0x3b,0x0c,0x5b,0x06,0x69,0x08,0x6f,0x3b,0x0a,0x07,0x3b,0x0b,0x69,0x00,0x3b,0x0c,0x5b,0x00))
  ChangeSelfSwitch("A",0)
  ChangeInventory_Item(241,0,0,1)
  0()
 PAGE   2
  // condition: self-switch A is ON
  0()



EVENT   9
 PAGE   1
  250(bytes(0x04,0x08,0x6f,0x3a,0x0c,0x52,0x50,0x47,0x3a,0x3a,0x53,0x45,0x08,0x3a,0x0a,0x40,0x6e,0x61,0x6d,0x65,0x49,0x22,0x0a,0x43,0x68,0x65,0x73,0x74,0x06,0x3a,0x06,0x45,0x54,0x3a,0x0b,0x40,0x70,0x69,0x74,0x63,0x68,0x69,0x69,0x3a,0x0c,0x40,0x76,0x6f,0x6c,0x75,0x6d,0x65,0x69,0x55))
  205(0,bytes(0x04,0x08,0x6f,0x3a,0x13,0x52,0x50,0x47,0x3a,0x3a,0x4d,0x6f,0x76,0x65,0x52,0x6f,0x75,0x74,0x65,0x09,0x3a,0x0c,0x40,0x72,0x65,0x70,0x65,0x61,0x74,0x46,0x3a,0x0f,0x40,0x73,0x6b,0x69,0x70,0x70,0x61,0x62,0x6c,0x65,0x46,0x3a,0x0a,0x40,0x77,0x61,0x69,0x74,0x54,0x3a,0x0a,0x40,0x6c,0x69,0x73,0x74,0x5b,0x0b,0x6f,0x3a,0x15,0x52,0x50,0x47,0x3a,0x3a,0x4d,0x6f,0x76,0x65,0x43,0x6f,0x6d,0x6d,0x61,0x6e,0x64,0x07,0x3a,0x0a,0x40,0x63,0x6f,0x64,0x65,0x69,0x29,0x3a,0x10,0x40,0x70,0x61,0x72,0x61,0x6d,0x65,0x74,0x65,0x72,0x73,0x5b,0x00,0x6f,0x3b,0x0a,0x07,0x3b,0x0b,0x69,0x16,0x3b,0x0c,0x5b,0x00,0x6f,0x3b,0x0a,0x07,0x3b,0x0b,0x69,0x14,0x3b,0x0c,0x5b,0x06,0x69,0x08,0x6f,0x3b,0x0a,0x07,0x3b,0x0b,0x69,0x17,0x3b,0x0c,0x5b,0x00,0x6f,0x3b,0x0a,0x07,0x3b,0x0b,0x69,0x14,0x3b,0x0c,0x5b,0x06,0x69,0x08,0x6f,0x3b,0x0a,0x07,0x3b,0x0b,0x69,0x00,0x3b,0x0c,0x5b,0x00))
  ChangeSelfSwitch("A",0)
  ChangeInventoryArmor(1322,0,0,1)
  0()
 PAGE   2
  // condition: self-switch A is ON
  0()



EVENT   10
 PAGE   1
  ChangeSwitch(2314,2314,0)
  ShowMessageFace("sonia_fc4",0,0,2,1)
  ShowMessage("\\n<Sonya>さむい……つかれた……")
  If(4,56,0)
   ShowMessageFace("inp_fc1",2,0,2,2)
   ShowMessage("\\n<Rami>もう歩きたくないよ～！")
   0()
  EndIf()
  If(0,4,0)
   ShowMessageFace("alice_fc5",0,0,2,3)
   ShowMessage("\\n<Alice>少し先にシロクマ娘の集落があるな……")
   ShowMessage("どうやら、こちらに敵意は持っていないようだ。")
   ShowMessageFace("alice_fc5",0,0,2,4)
   ShowMessage("\\n<Alice>もしかしたら、休ませてくれるかもしれんな。")
   0()
  EndIf()
  If(0,5,0)
   ShowMessageFace("iriasu_fc4",0,0,2,5)
   ShowMessage("\\n<Ilias>少し先にシロクマ娘の集落がありますね……")
   ShowMessage("どうやら、こちらに敵意は持っていないようです。")
   ShowMessageFace("iriasu_fc4",0,0,2,6)
   ShowMessage("\\n<Ilias>少しばかり、休ませてもらいましょう。")
   0()
  EndIf()
  If(4,45,0)
   ShowMessageFace("alicetromeria_fc1",4,0,2,7)
   ShowMessage("\\n<Alicetroemeria>あら、白いクマちゃんがいっぱい……♪")
   0()
  EndIf()
  If(4,538,0)
   ShowMessageFace("heinrich_fc1",2,0,2,8)
   ShowMessage("\\n<Heinrich>それにしても……")
   ShowMessage("天使様を倒すのは、心が痛むね。")
   If(0,5,0)
    ShowMessageFace("iriasu_fc4",2,0,2,9)
    ShowMessage("\\n<Ilias>どのツラ下げて、そんな事を……")
    ShowMessage("おっと、まだ先の話でしたね。")
    0()
   EndIf()
   0()
  EndIf()
  0()
 PAGE   2
  // condition: switch 2314 is ON
  0()



EVENT   11
 PAGE   1
  ShowMessageFace("",0,0,2,1)
  ShowMessage("↑：雪越えの洞窟・下り")
  0()



EVENT   12
 PAGE   1
  ShowMessageFace("",0,0,2,1)
  ShowMessage("↓：雪越えの洞窟・上がり")
  0()



EVENT   13
 PAGE   1
  250(bytes(0x04,0x08,0x6f,0x3a,0x0c,0x52,0x50,0x47,0x3a,0x3a,0x53,0x45,0x08,0x3a,0x0a,0x40,0x6e,0x61,0x6d,0x65,0x49,0x22,0x0a,0x49,0x74,0x65,0x6d,0x31,0x06,0x3a,0x06,0x45,0x54,0x3a,0x0b,0x40,0x70,0x69,0x74,0x63,0x68,0x69,0x69,0x3a,0x0c,0x40,0x76,0x6f,0x6c,0x75,0x6d,0x65,0x69,0x55))
  ChangeSelfSwitch("A",0)
  ChangeInventory_Item(57,0,0,1)
  0()
 PAGE   2
  // condition: self-switch A is ON
  0()



EVENT   14
 PAGE   1
  250(bytes(0x04,0x08,0x6f,0x3a,0x0c,0x52,0x50,0x47,0x3a,0x3a,0x53,0x45,0x08,0x3a,0x0a,0x40,0x6e,0x61,0x6d,0x65,0x49,0x22,0x0a,0x49,0x74,0x65,0x6d,0x31,0x06,0x3a,0x06,0x45,0x54,0x3a,0x0b,0x40,0x70,0x69,0x74,0x63,0x68,0x69,0x69,0x3a,0x0c,0x40,0x76,0x6f,0x6c,0x75,0x6d,0x65,0x69,0x55))
  ChangeSelfSwitch("A",0)
  ChangeInventory_Item(57,0,0,1)
  ShowMessageFace("shirokuma_fc1",0,0,2,1)
  ShowMessage("\\n<シロクマ娘>……………………")
  355("actor_label_jump")
  EndEventProcessing()
  DefineLabel("538")
  ShowMessageFace("heinrich_fc1",2,0,2,2)
  ShowMessage("\\n<Heinrich>ご、ごめん……")
  EndEventProcessing()
  0()
 PAGE   2
  // condition: self-switch A is ON
  0()



EVENT   15
 PAGE   1
  ShowMessageFace("shirokuma_fc1",0,0,2,1)
  ShowMessage("\\n<シロクマ娘>また来てね……")
  355("actor_label_jump")
  EndEventProcessing()
  DefineLabel("34")
  ShowMessageFace("micaelac_fc1",1,0,2,2)
  ShowMessage("\\n<Micaela-chan>またね！")
  EndEventProcessing()
  DefineLabel("45")
  ShowMessageFace("alicetromeria_fc1",0,0,2,3)
  ShowMessage("\\n<Alicetroemeria>また遊びましょうね……")
  EndEventProcessing()
  DefineLabel("382")
  ShowMessageFace("morrigan_fc1",0,0,2,4)
  ShowMessage("\\n<Morrigan>じゃあな！")
  EndEventProcessing()
  0()



EVENT   16
 PAGE   1
  ShowMessageFace("shirokuma_fc1",0,0,2,1)
  ShowMessage("\\n<シロクマ娘>ぺたぺた……ぺたぺた……")
  ShowMessageFace("",0,0,2,2)
  ShowMessage("シロクマ娘達は雪だるまを作っている……")
  0()



EVENT   17
 PAGE   1
  ShowMessageFace("shirokuma_fc1",0,0,2,1)
  ShowMessage("\\n<シロクマ娘>ぺたぺた……ぺたぺた……")
  ShowMessageFace("",0,0,2,2)
  ShowMessage("シロクマ娘達は雪だるまを作っている……")
  0()



EVENT   18
 PAGE   1
  ShowMessageFace("shirokuma_fc1",0,0,2,1)
  ShowMessage("\\n<シロクマ娘>おさかな、つかまえるよ……")
  355("actor_label_jump")
  EndEventProcessing()
  DefineLabel("53")
  ShowMessageFace("slime_fc1",0,0,2,2)
  ShowMessage("\\n<Lime>あたしも、おさかなつかまえるよー♪")
  EndEventProcessing()
  0()



EVENT   19
 PAGE   1
  ShowMessageFace("shirokuma_fc1",0,0,2,1)
  ShowMessage("\\n<シロクマ娘>小屋の中、あったかいよ……")
  ShowMessageFace("",0,0,2,2)
  ShowMessage("小屋の中で休みますか？")
  ShowChoices(strings("Yes","No"),2)
  IfPlayerPicksChoice(0,null)
   221()
   249(bytes(0x04,0x08,0x6f,0x3a,0x0c,0x52,0x50,0x47,0x3a,0x3a,0x4d,0x45,0x08,0x3a,0x0a,0x40,0x6e,0x61,0x6d,0x65,0x49,0x22,0x08,0x49,0x6e,0x6e,0x06,0x3a,0x06,0x45,0x54,0x3a,0x0b,0x40,0x70,0x69,0x74,0x63,0x68,0x69,0x69,0x3a,0x0c,0x40,0x76,0x6f,0x6c,0x75,0x6d,0x65,0x69,0x69))
   Wait(150)
   314(0,0)
   222()
   0()
  IfPlayerPicksChoice(1,null)
   0()
  404()
  0()



EVENT   20
 PAGE   1
  ShowMessageFace("shirokuma_fc1",0,0,2,1)
  ShowMessage("\\n<シロクマ娘>こんにちは……")
  355("actor_label_jump")
  EndEventProcessing()
  DefineLabel("36")
  ShowMessageFace("rucyfinac_fc1",1,0,2,2)
  ShowMessage("\\n<Lucifina-chan>こんにちは～♪")
  EndEventProcessing()
  DefineLabel("45")
  ShowMessageFace("alicetromeria_fc1",0,0,2,3)
  ShowMessage("\\n<Alicetroemeria>うふふっ、こんにちは。")
  ShowMessage("クマちゃんも、こんにちは……")
  EndEventProcessing()
  DefineLabel("382")
  ShowMessageFace("morrigan_fc1",0,0,2,4)
  ShowMessage("\\n<Morrigan>よぉ！　今日も寒いな！")
  EndEventProcessing()
  DefineLabel("538")
  ShowMessageFace("heinrich_fc1",1,0,2,5)
  ShowMessage("\\n<Heinrich>やあ、こんにちは。")
  ShowMessage("君達は、礼儀正しいシロクマだね。")
  EndEventProcessing()
  0()



EVENT   21
 PAGE   1
  ShowMessageFace("shirokuma_fc1",0,0,2,1)
  ShowMessage("\\n<シロクマ娘>いじめる……？")
  ShowChoices(strings("いじめない","いじめる"),0)
  IfPlayerPicksChoice(0,null)
   ShowMessageFace("shirokuma_fc1",0,0,2,2)
   ShowMessage("\\n<シロクマ娘>ほっ……")
   0()
  IfPlayerPicksChoice(1,null)
   ShowMessageFace("shirokuma_fc1",0,0,2,3)
   ShowMessage("\\n<シロクマ娘>びくびく……")
   0()
  404()
  0()



EVENT   22
 PAGE   1
  ShowMessageFace("shirokuma_fc1",0,0,2,1)
  ShowMessage("\\n<シロクマ娘>ゆさゆさ……")
  If(2,"A",1)
   ShowMessageFace("shirokuma_fc1",0,0,2,2)
   ShowMessage("\\n<シロクマ娘>ゆさゆさすると、果物が落ちてくるの……")
   ShowMessage("……あげる。")
   250(bytes(0x04,0x08,0x6f,0x3a,0x0c,0x52,0x50,0x47,0x3a,0x3a,0x53,0x45,0x08,0x3a,0x0a,0x40,0x6e,0x61,0x6d,0x65,0x49,0x22,0x0a,0x49,0x74,0x65,0x6d,0x31,0x06,0x3a,0x06,0x45,0x54,0x3a,0x0b,0x40,0x70,0x69,0x74,0x63,0x68,0x69,0x69,0x3a,0x0c,0x40,0x76,0x6f,0x6c,0x75,0x6d,0x65,0x69,0x55))
   ChangeSelfSwitch("A",0)
   ChangeInventory_Item(301,0,0,3)
   ShowMessageFace("shirokuma_fc1",0,0,2,3)
   ShowMessage("\\n<シロクマ娘>ゆさゆさ……")
   0()
  EndIf()
  0()



EVENT   23
 PAGE   1
  ShowMessageFace("shirokuma_fc1",0,0,2,1)
  ShowMessage("\\n<シロクマ娘>いじめないでね……")
  355("actor_label_jump")
  EndEventProcessing()
  DefineLabel("5")
  ShowMessageFace("alice_fc5",0,0,2,2)
  ShowMessage("\\n<Alice>最上クラスの魔獣をいじめる事のできる奴がいるか……")
  EndEventProcessing()
  DefineLabel("26")
  ShowMessageFace("iriasu_fc4",2,0,2,3)
  ShowMessage("\\n<Ilias>シロクマ娘といえば、ベヒーモスとも互角にやり合える魔獣……")
  ShowMessage("それなのに、なぜそんなに臆病なのです？")
  EndEventProcessing()
  0()



EVENT   24
 PAGE   1
  ShowMessageFace("shirokuma_fc1",0,0,2,1)
  ShowMessage("\\n<シロクマ娘>ねむい……")
  0()



EVENT   25
 PAGE   1
  ShowMessageFace("shirokuma_fc1",0,0,2,1)
  ShowMessage("\\n<シロクマ娘>うがー。")
  355("actor_label_jump")
  EndEventProcessing()
  DefineLabel("68")
  ShowMessageFace("dragonp_fc1",0,0,2,2)
  ShowMessage("\\n<Papi>うがー！")
  EndEventProcessing()
  DefineLabel("154")
  ShowMessageFace("wani_fc1",0,0,2,3)
  ShowMessage("\\n<ガー>がぁ……")
  EndEventProcessing()
  0()



EVENT   26
 PAGE   1
  ShowMessageFace("shirokuma_fc1",0,0,2,1)
  ShowMessage("\\n<シロクマ娘>天使？　ともだちだよ……")
  355("actor_label_jump")
  EndEventProcessing()
  DefineLabel("26")
  ShowMessageFace("iriasu_fc4",2,0,2,2)
  ShowMessage("\\n<Ilias>天使と魔獣が友達など……")
  ShowMessage("でもキューピッドあたり、モフモフしたのに弱そうですね。")
  EndEventProcessing()
  0()



EVENT   27
 PAGE   1
  ShowMessageFace("shirokuma_fc1",0,0,2,1)
  ShowMessage("\\n<シロクマ娘>さむさむ……")
  355("actor_label_jump")
  EndEventProcessing()
  DefineLabel("15")
  ShowMessageFace("salamander_fc1",0,0,2,2)
  ShowMessage("\\n<Salamander>私の体で温まるか……？")
  ShowMessageFace("shirokuma_fc1",1,0,2,3)
  ShowMessage("\\n<シロクマ娘>ぬくぬく……")
  ShowMessageFace("salamander_fc1",2,0,2,4)
  ShowMessage("\\n<Salamander>……クマ毛が焦げているぞ。")
  EndEventProcessing()
  DefineLabel("525")
  ShowMessageFace("sonia_fc2",2,0,2,5)
  ShowMessage("\\n<Sonya>シロクマなのに、寒がりって……変なの。")
  EndEventProcessing()
  0()



EVENT   28
 PAGE   1
  ShowMessageFace("shirokuma_fc1",0,0,2,1)
  ShowMessage("\\n<シロクマ娘>ぺたぺた……ぺたぺた……")
  ShowMessageFace("",0,0,2,2)
  ShowMessage("シロクマ娘達は雪だるまを作っている……")
  0()



EVENT   29
 PAGE   1
  ShowMessageFace("shirokuma_fc1",0,0,2,1)
  ShowMessage("\\n<シロクマ娘>ぺたぺた……ぺたぺた……")
  ShowMessageFace("",0,0,2,2)
  ShowMessage("シロクマ娘達は雪だるまを作っている……")
  0()



EVENT   30
 PAGE   1
  ShowMessageFace("shirokuma_fc1",0,0,2,1)
  ShowMessage("\\n<シロクマ娘>ツボの中に、ヒミツの宝物……")
  0()



EVENT   31
 PAGE   1
  250(bytes(0x04,0x08,0x6f,0x3a,0x0c,0x52,0x50,0x47,0x3a,0x3a,0x53,0x45,0x08,0x3a,0x0a,0x40,0x6e,0x61,0x6d,0x65,0x49,0x22,0x09,0x4d,0x6f,0x76,0x65,0x06,0x3a,0x06,0x45,0x54,0x3a,0x0b,0x40,0x70,0x69,0x74,0x63,0x68,0x69,0x69,0x3a,0x0c,0x40,0x76,0x6f,0x6c,0x75,0x6d,0x65,0x69,0x55))
  TeleportPlayer(0,395,2,1,2,0)
  0()



EVENT   32
 PAGE   1
  250(bytes(0x04,0x08,0x6f,0x3a,0x0c,0x52,0x50,0x47,0x3a,0x3a,0x53,0x45,0x08,0x3a,0x0a,0x40,0x6e,0x61,0x6d,0x65,0x49,0x22,0x09,0x4d,0x6f,0x76,0x65,0x06,0x3a,0x06,0x45,0x54,0x3a,0x0b,0x40,0x70,0x69,0x74,0x63,0x68,0x69,0x69,0x3a,0x0c,0x40,0x76,0x6f,0x6c,0x75,0x6d,0x65,0x69,0x55))
  TeleportPlayer(0,395,2,1,2,0)
  0()



EVENT   33
 PAGE   1
  // condition: switch 2315 is ON
  ShowMessageFace("",0,0,2,1)
  ShowMessage("迷子のシロクマ娘を連れて、シロクマの集落に辿り着いた！")
  Wait(30)
  221()
  Wait(60)
  281(1)
  TeleportPlayer(0,396,30,34,8,2)
  222()
  Wait(30)
  205(0,bytes(0x04,0x08,0x6f,0x3a,0x13,0x52,0x50,0x47,0x3a,0x3a,0x4d,0x6f,0x76,0x65,0x52,0x6f,0x75,0x74,0x65,0x09,0x3a,0x0c,0x40,0x72,0x65,0x70,0x65,0x61,0x74,0x46,0x3a,0x0f,0x40,0x73,0x6b,0x69,0x70,0x70,0x61,0x62,0x6c,0x65,0x46,0x3a,0x0a,0x40,0x77,0x61,0x69,0x74,0x54,0x3a,0x0a,0x40,0x6c,0x69,0x73,0x74,0x5b,0x09,0x6f,0x3a,0x15,0x52,0x50,0x47,0x3a,0x3a,0x4d,0x6f,0x76,0x65,0x43,0x6f,0x6d,0x6d,0x61,0x6e,0x64,0x07,0x3a,0x0a,0x40,0x63,0x6f,0x64,0x65,0x69,0x09,0x3a,0x10,0x40,0x70,0x61,0x72,0x61,0x6d,0x65,0x74,0x65,0x72,0x73,0x5b,0x00,0x6f,0x3b,0x0a,0x07,0x3b,0x0b,0x69,0x13,0x3b,0x0c,0x5b,0x07,0x69,0x00,0x69,0x00,0x6f,0x3b,0x0a,0x07,0x3b,0x0b,0x69,0x13,0x3b,0x0c,0x5b,0x07,0x69,0x00,0x69,0x00,0x6f,0x3b,0x0a,0x07,0x3b,0x0b,0x69,0x00,0x3b,0x0c,0x5b,0x00))
  ShowMessageFace("shirokuma_fc1",1,0,2,2)
  ShowMessage("\\n<シロクマ娘>なかま♪")
  205(0,bytes(0x04,0x08,0x6f,0x3a,0x13,0x52,0x50,0x47,0x3a,0x3a,0x4d,0x6f,0x76,0x65,0x52,0x6f,0x75,0x74,0x65,0x09,0x3a,0x0c,0x40,0x72,0x65,0x70,0x65,0x61,0x74,0x46,0x3a,0x0f,0x40,0x73,0x6b,0x69,0x70,0x70,0x61,0x62,0x6c,0x65,0x46,0x3a,0x0a,0x40,0x77,0x61,0x69,0x74,0x54,0x3a,0x0a,0x40,0x6c,0x69,0x73,0x74,0x5b,0x07,0x6f,0x3a,0x15,0x52,0x50,0x47,0x3a,0x3a,0x4d,0x6f,0x76,0x65,0x43,0x6f,0x6d,0x6d,0x61,0x6e,0x64,0x07,0x3a,0x0a,0x40,0x63,0x6f,0x64,0x65,0x69,0x1e,0x3a,0x10,0x40,0x70,0x61,0x72,0x61,0x6d,0x65,0x74,0x65,0x72,0x73,0x5b,0x00,0x6f,0x3b,0x0a,0x07,0x3b,0x0b,0x69,0x00,0x3b,0x0c,0x5b,0x00))
  ShowMessageFace("shirokuma_fc1",1,0,2,3)
  ShowMessage("\\n<シロクマ娘>ありがとう、あげる……")
  250(bytes(0x04,0x08,0x6f,0x3a,0x0c,0x52,0x50,0x47,0x3a,0x3a,0x53,0x45,0x08,0x3a,0x0a,0x40,0x6e,0x61,0x6d,0x65,0x49,0x22,0x0a,0x49,0x74,0x65,0x6d,0x31,0x06,0x3a,0x06,0x45,0x54,0x3a,0x0b,0x40,0x70,0x69,0x74,0x63,0x68,0x69,0x69,0x3a,0x0c,0x40,0x76,0x6f,0x6c,0x75,0x6d,0x65,0x69,0x55))
  ChangeInventory_Item(32,0,0,3)
  ChangeInventory_Item(57,0,0,2)
  ChangeInventory_Item(301,0,0,3)
  ChangeInventory_Item(322,0,0,3)
  ShowMessageFace("shirokuma_fc1",1,0,2,4)
  ShowMessage("\\n<シロクマ娘>またね……♪")
  205(0,bytes(0x04,0x08,0x6f,0x3a,0x13,0x52,0x50,0x47,0x3a,0x3a,0x4d,0x6f,0x76,0x65,0x52,0x6f,0x75,0x74,0x65,0x09,0x3a,0x0c,0x40,0x72,0x65,0x70,0x65,0x61,0x74,0x46,0x3a,0x0f,0x40,0x73,0x6b,0x69,0x70,0x70,0x61,0x62,0x6c,0x65,0x46,0x3a,0x0a,0x40,0x77,0x61,0x69,0x74,0x54,0x3a,0x0a,0x40,0x6c,0x69,0x73,0x74,0x5b,0x10,0x6f,0x3a,0x15,0x52,0x50,0x47,0x3a,0x3a,0x4d,0x6f,0x76,0x65,0x43,0x6f,0x6d,0x6d,0x61,0x6e,0x64,0x07,0x3a,0x0a,0x40,0x63,0x6f,0x64,0x65,0x69,0x09,0x3a,0x10,0x40,0x70,0x61,0x72,0x61,0x6d,0x65,0x74,0x65,0x72,0x73,0x5b,0x00,0x6f,0x3b,0x0a,0x07,0x3b,0x0b,0x69,0x09,0x3b,0x0c,0x5b,0x00,0x6f,0x3b,0x0a,0x07,0x3b,0x0b,0x69,0x09,0x3b,0x0c,0x5b,0x00,0x6f,0x3b,0x0a,0x07,0x3b,0x0b,0x69,0x09,0x3b,0x0c,0x5b,0x00,0x6f,0x3b,0x0a,0x07,0x3b,0x0b,0x69,0x09,0x3b,0x0c,0x5b,0x00,0x6f,0x3b,0x0a,0x07,0x3b,0x0b,0x69,0x09,0x3b,0x0c,0x5b,0x00,0x6f,0x3b,0x0a,0x07,0x3b,0x0b,0x69,0x09,0x3b,0x0c,0x5b,0x00,0x6f,0x3b,0x0a,0x07,0x3b,0x0b,0x69,0x09,0x3b,0x0c,0x5b,0x00,0x6f,0x3b,0x0a,0x07,0x3b,0x0b,0x69,0x09,0x3b,0x0c,0x5b,0x00,0x6f,0x3b,0x0a,0x07,0x3b,0x0b,0x69,0x09,0x3b,0x0c,0x5b,0x00,0x6f,0x3b,0x0a,0x07,0x3b,0x0b,0x69,0x00,0x3b,0x0c,0x5b,0x00))
  ChangeSwitch(2316,2316,0)
  ShowMessageFace("sonia_fc1",0,0,2,5)
  ShowMessage("\\n<Sonya>めでたし、めでたし♪")
  If(0,4,0)
   ShowMessageFace("alice_fc5",1,0,2,6)
   ShowMessage("\\n<Alice>まったく、手間をかけさせおって……")
   ShowMessage("強豪モンスターのくせに、迷子とはどういう事だ。")
   0()
  EndIf()
  If(0,5,0)
   ShowMessageFace("iriasu_fc4",0,0,2,7)
   ShowMessage("\\n<Ilias>まあ、たまにはこういうのも良いでしょう。")
   ShowMessage("仲間からはぐれて一人というのは、辛いものですからね……")
   0()
  EndIf()
  ShowMessageFace("ruka_fc1",0,0,2,8)
  ShowMessage("\\n<Luka>でも、これで大丈夫だね。")
  ShowMessage("それじゃあ、旅を続けよう！")
  355("gain_medal(2110)")
  EndEventProcessing()
  0()
 PAGE   2
  // condition: switch 2316 is ON
  0()



EVENT   34
 PAGE   1
  // condition: switch 2316 is ON
  ShowMessageFace("shirokuma_fc1",0,0,2,1)
  ShowMessage("\\n<シロクマ娘>ぺたぺた……ぺたぺた……")
  ShowMessageFace("",0,0,2,2)
  ShowMessage("シロクマ娘達は雪だるまを作っている……")
  ShowMessageFace("sonia_fc1",0,0,2,3)
  ShowMessage("\\n<Sonya>この子……")
  ShowMessage("迷子になってたシロクマよね。")
  ShowMessageFace("shirokuma_fc1",1,0,2,4)
  ShowMessage("\\n<シロクマ娘>助けてくれて、ありがとう……")
  0()



EVENT   35
 PAGE   1
  ShowMessageFace("shirokuma_fc1",0,0,2,1)
  ShowMessage("\\n<シロクマ娘>シロクマにくきゅう屋さんだよ。")
  ShowMessage("2Gで、にくきゅうプニプニする……？")
  ShowChoices(strings("プニプニする","プニプニしない"),2)
  IfPlayerPicksChoice(0,null)
   125(1,0,2)
   ShowMessageFace("",0,0,2,2)
   ShowMessage("ルカ達は肉球をプニプニさせてもらった……")
   If(0,4,0)
    ShowMessageFace("alicetromeria_fc1",0,0,2,3)
    ShowMessage("\\n<Alicetroemeria>うふふっ、プニプニですわね……")
    ShowMessage("とっても素敵な肉球……♪")
    ShowMessageFace("alice_fc5",7,0,2,4)
    ShowMessage("\\n<Alice>ぷにぷにぷに……")
    ShowMessage("これは癖になるな♪")
    0()
   EndIf()
   If(0,5,0)
    If(1,1077,0,2,1)
     ShowMessageFace("micaelac_fc1",1,0,2,5)
     ShowMessage("\\n<Micaela-chan>ぷにっ！")
     ShowMessageFace("rucyfinac_fc1",1,0,2,6)
     ShowMessage("\\n<Lucifina-chan>ぷにっ！　ぷにっ！")
     0()
    EndIf()
    ShowMessageFace("iriasu_fc4",1,0,2,7)
    ShowMessage("\\n<Ilias>このぷにぷに感、素敵ですね……")
    ShowMessage("力が戻った時は、肉球天使を造りましょう。")
    0()
   EndIf()
   ShowMessageFace("shirokuma_fc1",1,0,2,8)
   ShowMessage("\\n<シロクマ娘>またきてね……♪")
   EndEventProcessing()
   0()
  IfPlayerPicksChoice(1,null)
   ShowMessageFace("shirokuma_fc1",0,0,2,9)
   ShowMessage("\\n<シロクマ娘>やわらかいのに……")
   0()
  404()
  0()
