// EVENT 4517
Name "Eva 7"

If(0,25,1)
 221()
 PictureClear(5)
 PictureClear(6)
 ShowMessageFace("",0,0,2,0)
 ShowMessage("......")
 242(2)
 Wait(120)
 241(bytes(0x04,0x08,0x6f,0x3a,0x0d,0x52,0x50,0x47,0x3a,0x3a,0x42,0x47,0x4d,0x08,0x3a,0x0a,0x40,0x6e,0x61,0x6d,0x65,0x49,0x22,0x0c,0x63,0x61,0x73,0x74,0x6c,0x65,0x36,0x06,0x3a,0x06,0x45,0x54,0x3a,0x0c,0x40,0x76,0x6f,0x6c,0x75,0x6d,0x65,0x69,0x69,0x3a,0x0b,0x40,0x70,0x69,0x74,0x63,0x68,0x69,0x69))
 EndEventProcessing()
 0()
EndIf()
PictureDisplay(5,"80_eva_st01",0,0,0,0,100,100,255,0)
ShowMessageFace("eva_fc1",0,0,2,1)
ShowMessage("\\n<Eva>Whaaat? You want me to press my ass into your face?\nYou've got quite the shameful little fetish, don't you?")
ShowMessageFace("",0,0,2,2)
ShowMessage("\\n<Luka>P-please...")
PictureDisplay(5,"80_eva_st02",0,0,0,0,100,100,255,0)
ShowMessageFace("eva_fc1",1,0,2,3)
ShowMessage("\\n<Eva>Fufu, look at you, asking your ally for something like that.\nAlright, I'll give you a good taste...")
ShowMessageFace("",0,0,2,4)
ShowMessage("I follow Eva to her room...")
PictureDisplay(1,"bg195",0,0,0,0,100,100,255,0)
PictureDisplay(5,"80_eva_st02",0,0,0,0,100,100,255,0)
222()
241(bytes(0x04,0x08,0x6f,0x3a,0x0d,0x52,0x50,0x47,0x3a,0x3a,0x42,0x47,0x4d,0x08,0x3a,0x0a,0x40,0x6e,0x61,0x6d,0x65,0x49,0x22,0x09,0x65,0x72,0x6f,0x31,0x06,0x3a,0x06,0x45,0x54,0x3a,0x0c,0x40,0x76,0x6f,0x6c,0x75,0x6d,0x65,0x69,0x69,0x3a,0x0b,0x40,0x70,0x69,0x74,0x63,0x68,0x69,0x69))
ShowMessageFace("eva_fc1",1,0,2,5)
ShowMessage("\\n<Eva>Alright, I'll give you pleasure...")
245(bytes(0x04,0x08,0x6f,0x3a,0x0d,0x52,0x50,0x47,0x3a,0x3a,0x42,0x47,0x53,0x08,0x3a,0x0a,0x40,0x6e,0x61,0x6d,0x65,0x49,0x22,0x17,0x6d,0x6f,0x6e,0x5f,0x68,0x73,0x65,0x61,0x6e,0x31,0x37,0x5f,0x73,0x69,0x67,0x6f,0x6b,0x69,0x06,0x3a,0x06,0x45,0x54,0x3a,0x0c,0x40,0x76,0x6f,0x6c,0x75,0x6d,0x65,0x69,0x55,0x3a,0x0b,0x40,0x70,0x69,0x74,0x63,0x68,0x69,0x69))
PictureDisplay(5,"ev_eva_hb4",0,0,0,0,100,100,0,0)
PictureMove(5,null,0,0,0,0,100,100,255,0,30,true)
ShowMessageFace("",0,0,2,6)
ShowMessage("Eva sits her ass on my face.")
ShowMessage("Her secret part covers my mouth...")
ShowMessageFace("",0,0,2,7)
ShowMessage("\\n<Luka>Nn...Nnn...")
ShowMessageFace("",0,0,2,8)
ShowMessage("Her peculiar, sweet succubus fragrance invade my nose. ")
ShowMessage("It feels like I'm inhaling steaming, hot air...")
ShowMessageFace("",0,0,2,9)
ShowMessage("The smell from her secret part intoxicate me.")
ShowMessage("The sweet feeling makes it hard to breathe.")
ShowMessageFace("eva_fc1",1,0,2,10)
ShowMessage("\\n<Eva>How embarrassing, you got so big...\nDoes my smell excite you?")
ShowMessageFace("",0,0,2,11)
ShowMessage("While giggling Eva extends her tail to my crotch.")
ShowMessage("The mouth of her tails swallows my penis all at once.")
ShowMessageFace("",0,0,2,12)
ShowMessage("\\n<Luka>Nn, Nnnnn...!")
ShowMessageFace("",0,0,2,13)
ShowMessage("I moan as me penis gets enveloped in a soft sensation.")
ShowMessage("Eva pushes her secret place on my mouth again.")
ShowMessageFace("eva_fc1",1,0,2,14)
ShowMessage("\\n<Eva>...hora, taste it.\nIf you do it well enough I'll make your penis come.")
ShowMessageFace("",0,0,2,15)
ShowMessage("\\n<Luka>Nnn...Nnn...")
ShowMessageFace("",0,0,2,16)
ShowMessage("I stretch out my tongue and touch Eva's vagina.")
ShowMessage("Just like that I start lapping at it like a dog.")
ShowMessageFace("",0,0,2,17)
ShowMessage("More and more of her hot aroma fills my nose.")
ShowMessage("Her lewd taste spreads in my mouth...")
ShowMessageFace("",0,0,2,18)
ShowMessage("\\n<Luka>Nnn...Nnn...")
ShowMessageFace("",0,0,2,19)
ShowMessage("While inhaling her scent I desperately lick at her secret part.")
ShowMessage("Just having her sit on my face like this feels heavenly...")
ShowMessageFace("eva_fc1",1,0,2,20)
ShowMessage("\\n<Eva>Haha, you're quite good at this.\nYes...Lick me more...")
ShowMessageFace("",0,0,2,21)
ShowMessage("The tip of her tail narrows sharply and a sweet tightening fills my penis...")
ShowMessage("At that same moment a feeling of release unexpectedly spreads through my waist.")
ShowMessageFace("",0,0,2,22)
ShowMessage("\\n<Luka>Nn, Nnnnn...!")
ShowMessageFace("",0,0,2,23)
ShowMessage("Until now, my penis was hardly given any stimulation...")
ShowMessage("I get really excited from her riding my face that I simply cannot hold back anymore.")
ShowMessageFace("eva_fc1",2,0,2,24)
ShowMessage("\\n<Eva>Eh...?\nDon't tell me you're about to...")
RunCommonEvent(104)
PictureDisplay(5,"ev_eva_hb5",0,0,0,0,100,100,255,0)
RunCommonEvent(105)
ShowMessageFace("",0,0,2,25)
ShowMessage("I come inside Eva's tail.")
ShowMessage("Eva scornfully watches as I pour my semen inside her tail...")
ShowMessageFace("",0,0,2,26)
ShowMessage("\\n<Luka>Nnn...")
ShowMessageFace("eva_fc1",1,0,2,27)
ShowMessage("\\n<Eva>Truly pitiful to come after being played with a little.\nI have to punish you for coming without my permission...")
ShowMessageFace("",0,0,2,28)
ShowMessage("\\n<Luka>S-stop...Nnnnn!!")
ShowMessageFace("",0,0,2,29)
ShowMessage("Her merciless tail attacks my penis with its suction right after my ejaculation.")
ShowMessage("The inner walls of her tail shrink and start sucking on my penis.")
ShowMessageFace("",0,0,2,30)
ShowMessage("On top of that, she presses her secret part on my face really hard.")
ShowMessage("My mouth and nose are filled with her hot scent and it's becoming difficult to breathe.")
ShowMessageFace("",0,0,2,31)
ShowMessage("\\n<Luka>Nnnngg...! Ngg!!")
ShowMessageFace("",0,0,2,32)
ShowMessage("I struggle to no avail as Eva sits on my face.")
ShowMessage("However I'm unable to escape and my penis continues to be forcefully stimulated.")
ShowMessageFace("eva_fc1",1,0,2,33)
ShowMessage("\\n<Eva>Hoo-ra, just hurry up and come.\nCum twice in a row as you taste my pussy...")
ShowMessageFace("",0,0,2,34)
ShowMessage("\\n<Luka>Nn...Nn, Nnnn...!!")
ShowMessageFace("",0,0,2,35)
ShowMessage("A ruthless and unforgiving stimulation.")
ShowMessage("I can't endure Eva's intense tail...")
RunCommonEvent(104)
PictureDisplay(5,"ev_eva_hb6",0,0,0,0,100,100,255,0)
RunCommonEvent(105)
ShowMessageFace("",0,0,2,36)
ShowMessage("She makes me come in her tail with ease a second time.")
ShowMessage("Under her soft ass I taste the feeling of release inhaling her aroma...")
246(2)
ShowMessageFace("",0,0,2,37)
ShowMessage("\\n<Luka>Nnn...Nnn...")
ShowMessageFace("",0,0,2,38)
ShowMessage("Feeling my consciousness fading, I have no energy left to move.")
ShowMessage("The continuous ejaculations while sniffing her scent were just too much for me.")
ShowMessageFace("eva_fc1",1,0,2,39)
ShowMessage("\\n<Eva>If I let you smell more you'll die.\nYou're such a weak kid I can't even punish you long enough.")
ShowMessageFace("eva_fc1",1,0,2,40)
ShowMessage("\\n<Eva>I'll stop here for today.\nI'll punish you again, so look forward to it.")
ShowMessageFace("",0,0,2,41)
ShowMessage("Eva looks my weakened body with superiority in her eyes.")
ShowMessage("I was completely dominated by a Succubus...")
221()
PictureClear(5)
PictureClear(6)
246(2)
ShowMessageFace("",0,0,2,42)
ShowMessage("......")
242(2)
Wait(120)
241(bytes(0x04,0x08,0x6f,0x3a,0x0d,0x52,0x50,0x47,0x3a,0x3a,0x42,0x47,0x4d,0x08,0x3a,0x0a,0x40,0x6e,0x61,0x6d,0x65,0x49,0x22,0x0c,0x63,0x61,0x73,0x74,0x6c,0x65,0x36,0x06,0x3a,0x06,0x45,0x54,0x3a,0x0c,0x40,0x76,0x6f,0x6c,0x75,0x6d,0x65,0x69,0x69,0x3a,0x0b,0x40,0x70,0x69,0x74,0x63,0x68,0x69,0x69))
0()
