// EVENT 4358
Name "Lamia 3"

If(0,25,1)
 221()
 PictureClear(5)
 PictureClear(6)
 ShowMessageFace("",0,0,2,0)
 ShowMessage("......")
 242(2)
 Wait(120)
 241(bytes(0x04,0x08,0x6f,0x3a,0x0d,0x52,0x50,0x47,0x3a,0x3a,0x42,0x47,0x4d,0x08,0x3a,0x0a,0x40,0x6e,0x61,0x6d,0x65,0x49,0x22,0x0c,0x63,0x61,0x73,0x74,0x6c,0x65,0x36,0x06,0x3a,0x06,0x45,0x54,0x3a,0x0c,0x40,0x76,0x6f,0x6c,0x75,0x6d,0x65,0x69,0x69,0x3a,0x0b,0x40,0x70,0x69,0x74,0x63,0x68,0x69,0x69))
 EndEventProcessing()
 0()
EndIf()
PictureDisplay(5,"80_lamia_st02",0,0,0,0,100,100,255,0)
ShowMessageFace("lamia_fc1",0,0,2,1)
ShowMessage("\\n<Anastasia>Fufu, you want to mate with me?\nMating with a lamia feels incredible.")
ShowMessageFace("",0,0,2,2)
ShowMessage("\\n<Luka>Y-Yeah...")
ShowMessageFace("lamia_fc1",1,0,2,3)
ShowMessage("\\n<Anastasia>Well then, let's mate.\nI'll make you come with my magical vagina...")
PictureDisplay(5,"80_lamia_st12",0,0,0,0,100,100,255,0)
ShowMessageFace("",0,0,2,4)
ShowMessage("Anastasia takes off her clothes and approaches me.")
ShowMessage("Just like that she winds around me like a snake...")
ShowMessageFace("",0,0,2,5)
ShowMessage("\\n<Luka>Uaah! Amazing...!")
241(bytes(0x04,0x08,0x6f,0x3a,0x0d,0x52,0x50,0x47,0x3a,0x3a,0x42,0x47,0x4d,0x08,0x3a,0x0a,0x40,0x6e,0x61,0x6d,0x65,0x49,0x22,0x09,0x65,0x72,0x6f,0x31,0x06,0x3a,0x06,0x45,0x54,0x3a,0x0c,0x40,0x76,0x6f,0x6c,0x75,0x6d,0x65,0x69,0x69,0x3a,0x0b,0x40,0x70,0x69,0x74,0x63,0x68,0x69,0x69))
245(bytes(0x04,0x08,0x6f,0x3a,0x0d,0x52,0x50,0x47,0x3a,0x3a,0x42,0x47,0x53,0x08,0x3a,0x0a,0x40,0x6e,0x61,0x6d,0x65,0x49,0x22,0x1e,0x6d,0x6f,0x6e,0x5f,0x68,0x73,0x65,0x61,0x6e,0x30,0x39,0x5f,0x69,0x6e,0x6e,0x65,0x72,0x77,0x6f,0x72,0x6b,0x73,0x5f,0x62,0x31,0x06,0x3a,0x06,0x45,0x54,0x3a,0x0c,0x40,0x76,0x6f,0x6c,0x75,0x6d,0x65,0x69,0x55,0x3a,0x0b,0x40,0x70,0x69,0x74,0x63,0x68,0x69,0x69))
PictureDisplay(5,"ev_lamia_hb1",0,0,0,0,100,100,255,0)
ShowMessageFace("",0,0,2,6)
ShowMessage("Her soft vagina envelopes my penis, with her powerful muscles bulging through the warm walls.")
ShowMessageFace("",0,0,2,7)
ShowMessage("\\n<Luka>Auuu! Don't make it any tighter...")
PictureDisplay(6,"ev_lamia_ctb01",0,0,0,0,100,100,255,0)
ShowMessageFace("",0,0,2,8)
ShowMessage("The sensation was too powerful, as my waist meets her thrusts in seeking more pleasure.")
ShowMessageFace("",0,0,2,9)
ShowMessage("\\n<Luka>Uaah! Amazing...!")
ShowMessageFace("lamia_fc1",4,0,2,10)
ShowMessage("\\n<Anastasia>Are you able to feel the muscles in my vagina?")
ShowMessageFace("lamia_fc1",4,0,2,11)
ShowMessage("\\n<Anastasia>I can control each one individually, and tighten around you like this...\nFufufu...")
ShowMessageFace("",0,0,2,12)
ShowMessage("I feel her pussy start to slowly shrink around me.")
ShowMessageFace("",0,0,2,13)
ShowMessage("Every muscle is flexing at a different rate, giving a different stimulation with every movement.")
ShowMessageFace("",0,0,2,14)
ShowMessage("\\n<Luka>Ahii!")
ShowMessageFace("",0,0,2,15)
ShowMessage("Each time she thrusts her waist into me, I feel my penis going in and out of tiny rings of muscles.")
ShowMessageFace("",0,0,2,16)
ShowMessage("Her tiny rings rub my penis countless times.")
ShowMessage("And it feels like each contracts individually.")
ShowMessageFace("",0,0,2,17)
ShowMessage("Each ring feels like I'm penetrating an additional layer, causing my body to writhe at the pleasure.")
ShowMessageFace("lamia_fc1",4,0,2,18)
ShowMessage("\\n<Anastasia>Fufu, it will feel amazing...")
ShowMessageFace("lamia_fc1",4,0,2,19)
ShowMessage("\\n<Anastasia>Fufu... Amazing, isn't it?\nHow does it feel being raped by a Lamia?")
ShowMessageFace("",0,0,2,20)
ShowMessage("\\n<Luka>Ah, Aiyeee...!")
ShowMessageFace("",0,0,2,21)
ShowMessage("Feeling too much pleasure, the sense of ejaculation rises.")
ShowMessage("My waist goes numb and I can't hold back anymore...")
ShowMessageFace("lamia_fc1",4,0,2,22)
ShowMessage("\\n<Anastasia>Already at your limit?\nThen... Shoot everything out into me!")
ShowMessageFace("",0,0,2,23)
ShowMessage("\\n<Luka>Ah, Unnngh...!")
ShowMessageFace("",0,0,2,24)
ShowMessage("Anastasia starts to contract her pussy in waves, as if goading me into an orgasm.")
ShowMessageFace("",0,0,2,25)
ShowMessage("There's no way I could resist such an amazing invitation... ")
ShowMessageFace("",0,0,2,26)
ShowMessage("\\n<Luka>Ahh... Doing that...! Ahhh!")
RunCommonEvent(104)
PictureDisplay(5,"ev_lamia_hb2",0,0,0,0,100,100,255,0)
PictureDisplay(6,"ev_lamia_ctb02",0,0,0,0,100,100,255,0)
RunCommonEvent(105)
ShowMessageFace("",0,0,2,27)
ShowMessage("Almost as if being milked, I explode inside Anastasia.")
ShowMessage("Anastasia continues her milking motion, as she sucks up all the semen.")
ShowMessageFace("lamia_fc1",4,0,2,28)
ShowMessage("\\n<Anastasia>...Fufu, you let it out.\nFrom now on, I'll make you come repeatedly with no time to rest.")
ShowMessageFace("",0,0,2,29)
ShowMessage("\\n<Luka>Eh...? Ahhhh!")
245(bytes(0x04,0x08,0x6f,0x3a,0x0d,0x52,0x50,0x47,0x3a,0x3a,0x42,0x47,0x53,0x08,0x3a,0x0a,0x40,0x6e,0x61,0x6d,0x65,0x49,0x22,0x1e,0x6d,0x6f,0x6e,0x5f,0x68,0x73,0x65,0x61,0x6e,0x31,0x30,0x5f,0x69,0x6e,0x6e,0x65,0x72,0x77,0x6f,0x72,0x6b,0x73,0x5f,0x62,0x32,0x06,0x3a,0x06,0x45,0x54,0x3a,0x0c,0x40,0x76,0x6f,0x6c,0x75,0x6d,0x65,0x69,0x55,0x3a,0x0b,0x40,0x70,0x69,0x74,0x63,0x68,0x69,0x69))
ShowMessageFace("",0,0,2,30)
ShowMessage("In the next moment, Anastasia shrinks her pussy to half the size it was before.")
ShowMessageFace("",0,0,2,31)
ShowMessage("Stuck deep inside her, her muscles start to contract around me, squeezing me like a pump.")
ShowMessageFace("",0,0,2,32)
ShowMessage("From the tip of my penis to the base, her pussy violently milks me.")
ShowMessageFace("",0,0,2,33)
ShowMessage("\\n<Luka>Ah, Aaaah...!!")
ShowMessageFace("",0,0,2,34)
ShowMessage("The sudden attack of pleasure causes me to unconsciously try to pull my waist back.")
ShowMessage("But the Anastasia's hold is too tight, and I can't even move an inch out of her.")
ShowMessageFace("",0,0,2,35)
ShowMessage("With no way to escape, I have no choice but to be squeezed mercilessly...")
ShowMessageFace("",0,0,2,36)
ShowMessage("\\n<Luka>Auu... I'm coming again...")
RunCommonEvent(104)
PictureDisplay(5,"ev_lamia_hb3",0,0,0,0,100,100,255,0)
PictureDisplay(6,"ev_lamia_ctb03",0,0,0,0,100,100,255,0)
RunCommonEvent(105)
ShowMessageFace("",0,0,2,37)
ShowMessage("The brutal squeezing forces me to come again quickly.")
ShowMessageFace("lamia_fc1",4,0,2,38)
ShowMessage("\\n<Anastasia>Fufu... You let out more of your delicious semen inside me.\nGive me more of your nutritious seed...")
ShowMessageFace("",0,0,2,39)
ShowMessage("Her relentless squeezing continues as she laughs at me.")
ShowMessageFace("",0,0,2,40)
ShowMessage("With no end in sight, I'm forcefully brought to the brink of another climax.")
ShowMessageFace("",0,0,2,41)
ShowMessage("\\n<Luka>Ahi... Stop already...\nI'll die at this rate...")
ShowMessageFace("lamia_fc1",4,0,2,42)
ShowMessage("\\n<Anastasia>I'll squeeze you until there's nothing left...")
ShowMessageFace("",0,0,2,43)
ShowMessage("\\n<Luka>Ah, Aaaah...!!")
RunCommonEvent(104)
RunCommonEvent(105)
ShowMessageFace("lamia_fc1",4,0,2,44)
ShowMessage("\\n<Anastasia>I'm making you feel good, so let out more.\nUntil not even a drop remains, I'll keep this up...")
ShowMessageFace("",0,0,2,45)
ShowMessage("\\n<Luka>Ahh... Help me... Someone...")
RunCommonEvent(104)
RunCommonEvent(105)
ShowMessageFace("lamia_fc1",4,0,2,46)
ShowMessage("\\n<Anastasia>Fufu... Crying while ejaculating. What a pathetic man.\nHere... Let out even more!")
ShowMessageFace("",0,0,2,47)
ShowMessage("\\n<Luka>Ah, Aaah...")
RunCommonEvent(104)
RunCommonEvent(105)
ShowMessageFace("",0,0,2,48)
ShowMessage("The Anastasia continues to milk me, even as I ejaculate.")
ShowMessageFace("",0,0,2,49)
ShowMessage("Just like a real snake, she's toying with me... her prey.")
ShowMessageFace("lamia_fc1",4,0,2,50)
ShowMessage("\\n<Anastasia>There's no chance of you escaping from me anymore.\nLike this, I'll keep squeezing semen out of you...")
ShowMessageFace("lamia_fc1",4,0,2,51)
ShowMessage("\\n<Anastasia>I won't let you die... I'll keep this up forever!")
ShowMessageFace("",0,0,2,52)
ShowMessage("\\n<Luka>Aaaaah...")
RunCommonEvent(104)
RunCommonEvent(105)
ShowMessageFace("",0,0,2,53)
ShowMessage("There's no escape from this hell...")
ShowMessage("I have no idea how long she will keep squeezing my sperm out...")
ShowMessageFace("",0,0,2,54)
ShowMessage("I have no choice but to be constricted by her and forcefully squeezed...")
ShowMessage("I feel miserable as a man...")
ShowMessageFace("",0,0,2,55)
ShowMessage("\\n<Luka>Auuu...")
ShowMessageFace("",0,0,2,56)
ShowMessage("In my misery, tears start to flow down my cheek.")
ShowMessageFace("",0,0,2,57)
ShowMessage("While my mind is in horror at my situation, my body is rejoicing in the pleasure.")
ShowMessageFace("lamia_fc1",4,0,2,58)
ShowMessage("\\n<Anastasia>Fufufu... It's no use crying or screaming.\nLamias are able to continue mating for years.")
ShowMessageFace("lamia_fc1",4,0,2,59)
ShowMessage("\\n<Anastasia>I won't let you go until you die of old age.\nAre you miserable?　Are you mortified?　Hahahaha!")
ShowMessageFace("",0,0,2,60)
ShowMessage("\\n<Luka>Aaa...")
RunCommonEvent(104)
RunCommonEvent(105)
ShowMessageFace("",0,0,2,61)
ShowMessage("Unable to even respond to her anymore, I'm forced into another climax.")
ShowMessageFace("",0,0,2,62)
ShowMessage("Awash in ecstasy, and too weak to move, my vision starts to fade.")
ShowMessageFace("lamia_fc1",4,0,2,63)
ShowMessage("\\n<Anastasia>You fainted during our mating.\nHow pathetic...")
ShowMessageFace("",0,0,2,64)
ShowMessage("\\n<Luka>Ahh...")
RunCommonEvent(104)
RunCommonEvent(105)
221()
PictureClear(5)
PictureClear(6)
246(2)
ShowMessageFace("",0,0,2,65)
ShowMessage("I lose my sanity while being squeezed by Anastasia's devilish vagina.")
ShowMessage("Until finally, I'm released from this mating hell...")
221()
PictureClear(5)
PictureClear(6)
246(2)
ShowMessageFace("",0,0,2,66)
ShowMessage("......")
242(2)
Wait(120)
241(bytes(0x04,0x08,0x6f,0x3a,0x0d,0x52,0x50,0x47,0x3a,0x3a,0x42,0x47,0x4d,0x08,0x3a,0x0a,0x40,0x6e,0x61,0x6d,0x65,0x49,0x22,0x0c,0x63,0x61,0x73,0x74,0x6c,0x65,0x36,0x06,0x3a,0x06,0x45,0x54,0x3a,0x0c,0x40,0x76,0x6f,0x6c,0x75,0x6d,0x65,0x69,0x69,0x3a,0x0b,0x40,0x70,0x69,0x74,0x63,0x68,0x69,0x69))
0()
