﻿// EVENT 4363
Name "Seaweed Girl 3"

If(0,25,1)
 221()
 PictureClear(5)
 PictureClear(6)
 ShowMessageFace("",0,0,2,1)
 ShowMessage("........")
 242(2)
 Wait(120)
 241(bytes(0x04,0x08,0x6f,0x3a,0x0d,0x52,0x50,0x47,0x3a,0x3a,0x42,0x47,0x4d,0x08,0x3a,0x0a,0x40,0x6e,0x61,0x6d,0x65,0x49,0x22,0x0c,0x63,0x61,0x73,0x74,0x6c,0x65,0x36,0x06,0x3a,0x06,0x45,0x54,0x3a,0x0c,0x40,0x76,0x6f,0x6c,0x75,0x6d,0x65,0x69,0x69,0x3a,0x0b,0x40,0x70,0x69,0x74,0x63,0x68,0x69,0x69))
 EndEventProcessing()
 0()
EndIf()
PictureDisplay(5,"80_wakame_st01",0,0,0,0,100,100,255,0)
ShowMessageFace("wakame_fc1",0,0,2,2)
ShowMessage("\\n<Wakame>You want to feel good with my seaweed...?")
ShowMessageFace("",0,0,2,3)
ShowMessage("\\n<Luka>P-Please...")
PictureDisplay(5,"80_wakame_st02",0,0,0,0,100,100,255,0)
ShowMessageFace("wakame_fc1",1,0,2,4)
ShowMessage("\\n<Wakame>Well then, I'll use my roots...")
ShowMessageFace("",0,0,2,5)
ShowMessage("Wakame sidles up to my defenseless body.")
ShowMessage("From the bottom of her body, the roots stretch out and extend...")
241(bytes(0x04,0x08,0x6f,0x3a,0x0d,0x52,0x50,0x47,0x3a,0x3a,0x42,0x47,0x4d,0x08,0x3a,0x0a,0x40,0x6e,0x61,0x6d,0x65,0x49,0x22,0x09,0x65,0x72,0x6f,0x31,0x06,0x3a,0x06,0x45,0x54,0x3a,0x0c,0x40,0x76,0x6f,0x6c,0x75,0x6d,0x65,0x69,0x69,0x3a,0x0b,0x40,0x70,0x69,0x74,0x63,0x68,0x69,0x69))
245(bytes(0x04,0x08,0x6f,0x3a,0x0d,0x52,0x50,0x47,0x3a,0x3a,0x42,0x47,0x53,0x08,0x3a,0x0a,0x40,0x6e,0x61,0x6d,0x65,0x49,0x22,0x1a,0x6d,0x6f,0x6e,0x5f,0x68,0x73,0x65,0x61,0x6e,0x32,0x31,0x5f,0x74,0x65,0x6e,0x74,0x61,0x63,0x6c,0x65,0x32,0x06,0x3a,0x06,0x45,0x54,0x3a,0x0c,0x40,0x76,0x6f,0x6c,0x75,0x6d,0x65,0x69,0x55,0x3a,0x0b,0x40,0x70,0x69,0x74,0x63,0x68,0x69,0x69))
PictureDisplay(5,"ev_wakame_hc1",0,0,0,0,100,100,0,0)
PictureMove(5,null,0,0,0,0,100,100,255,0,30,true)
ShowMessageFace("wakame_fc1",1,0,2,6)
ShowMessage("\\n<Wakame>Roll roll")
ShowMessageFace("",0,0,2,7)
ShowMessage("\\n<Luka>Wh-what...Aaaah!")
ShowMessageFace("",0,0,2,8)
ShowMessage("Like a tentacle, the roots approach my penis.")
ShowMessage("My penis get immediately wrapped in them and is covered in a slimy feeling.")
ShowMessageFace("",0,0,2,9)
ShowMessage("\\n<Luka>Hauuu...! Wh-what is this...!")
ShowMessageFace("",0,0,2,10)
ShowMessage("A suction feeling starts as her roots finish wrapping around me ")
ShowMessage("My waist jerks back and forth from the crazy pleasure.")
ShowMessageFace("",0,0,2,11)
ShowMessage("The roots around my penis start pulsating as if they were sucking up nutrients.")
ShowMessage("That pulsating brings with it a heavenly pleasure to my penis.")
ShowMessageFace("",0,0,2,12)
ShowMessage("\\n<Luka>Haa...Aaaah...!")
ShowMessageFace("wakame_fc1",1,0,2,13)
ShowMessage("\\n<Wakame>My roots are designed to suck out nutrients.")
ShowMessage("You absolutely can't endure this.")
ShowMessageFace("",0,0,2,14)
ShowMessage("\\n<Luka>That feels good...I'm coming...")
ShowMessageFace("",0,0,2,15)
ShowMessage("Her roots winded around my member create a sticky sucking sensation...")
ShowMessage("She's trying to squeeze out my semen while forcing this crazy pleasure into me.")
ShowMessageFace("",0,0,2,16)
ShowMessage("A dull ache rises from my waist from the overwhelming pleasure...")
ShowMessage("I lose control over my waist as she sucks on me...")
RunCommonEvent(104)
PictureDisplay(5,"ev_wakame_hc2",0,0,0,0,100,100,255,0)
RunCommonEvent(105)
ShowMessageFace("",0,0,2,17)
ShowMessage("\\n<Luka>Nnngh...")
ShowMessageFace("",0,0,2,18)
ShowMessage("Regardless of my will I came.")
ShowMessage("My cloudy semen lows from my penis and is sucked up by the roots.")
ShowMessageFace("",0,0,2,19)
ShowMessage("I melt while enjoying this sweet feeling of release.")
ShowMessage("A strong sense of weakness comes over me...")
ShowMessageFace("wakame_fc1",1,0,2,20)
ShowMessage("\\n<Wakame>Hora, you came right away...")
ShowMessage("More, more, I'll suck out more...")
ShowMessageFace("",0,0,2,21)
ShowMessage("\\n<Luka>No way...This is...")
ShowMessageFace("",0,0,2,22)
ShowMessage("Her roots tighten and rub my penis even more.")
ShowMessage("My glans gets caught in the mouth they formed and gets sucked hard.")
ShowMessageFace("",0,0,2,23)
ShowMessage("They start losing moisture and the more moisture they lose the harder they suck on my glans.")
ShowMessage("My penis covered in her roots, the pleasure just melts me away...")
ShowMessageFace("",0,0,2,24)
ShowMessage("\\n<Luka>Too good...Hyaaaa...!")
RunCommonEvent(104)
PictureDisplay(5,"ev_wakame_hc3",0,0,0,0,100,100,255,0)
RunCommonEvent(105)
ShowMessageFace("",0,0,2,25)
ShowMessage("I come again for the second time.")
ShowMessage("Regardless of my will I was forced to ejaculate...")
ShowMessageFace("",0,0,2,26)
ShowMessage("\\n<Luka>Haaa...Auuu...")
ShowMessageFace("wakame_fc1",1,0,2,27)
ShowMessage("\\n<Wakame>Semen, tasty...")
ShowMessage("Give me more...")
ShowMessageFace("",0,0,2,28)
ShowMessage("\\n<Luka>Impossible...Aaaaah!!")
ShowMessageFace("",0,0,2,29)
ShowMessage("Her roots wrapped around my penis feel like a slick flesh cylinder.")
ShowMessage("The rough inner layer is wrapping, tightening, sucking, moving in a wavy motion...")
ShowMessageFace("",0,0,2,30)
ShowMessage("\\n<Luka>Hauu...Ah, aaaaaah...!!")
RunCommonEvent(104)
RunCommonEvent(105)
ShowMessageFace("",0,0,2,31)
ShowMessage("The contractions of her roots synchronize with the pulsations of my ejaculation.")
ShowMessage("Just being wrapped in Wakane's roots is enough to make me come...")
ShowMessageFace("",0,0,2,32)
ShowMessage("\\n<Luka>Hauu...I'll die....")
ShowMessageFace("wakame_fc1",1,0,2,33)
ShowMessage("\\n<Wakame>More give me more...more...")
ShowMessageFace("",0,0,2,34)
ShowMessage("\\n<Luka>Hyaaaa!!")
RunCommonEvent(104)
RunCommonEvent(105)
ShowMessageFace("",0,0,2,35)
ShowMessage("I lose count of how many times I ejaculated.")
ShowMessage("She'll suck me dry like this...")
ShowMessageFace("",0,0,2,36)
ShowMessage("\\n<Luka>Stop! Help me!")
ShowMessageFace("wakame_fc1",1,0,2,37)
ShowMessage("\\n<Wakame>No...I will suck everything out of you...")
ShowMessageFace("",0,0,2,38)
ShowMessage("\\n<Luka>Hya...Ah, aaaaaah...!!")
RunCommonEvent(104)
RunCommonEvent(105)
221()
246(2)
ShowMessageFace("",0,0,2,39)
ShowMessage("Thus she sucks me with her roots continuously.")
ShowMessage("Until nothing more came out even if I ejaculated...")
ShowMessageFace("",0,0,2,40)
ShowMessage("She finally released me after she realized nothing more was coming out.")
ShowMessage("I felt so weak, like I was driven to the point where I was one step away from my death...")
PictureClear(5)
ShowMessageFace("",0,0,2,41)
ShowMessage("........")
RunCommonEvent(3998)
0()
