// EVENT 0353
Name "イリアス神殿侵入"

If(1,1076,0,4,2)
 250(bytes(0x04,0x08,0x6f,0x3a,0x0c,0x52,0x50,0x47,0x3a,0x3a,0x53,0x45,0x08,0x3a,0x0a,0x40,0x6e,0x61,0x6d,0x65,0x49,0x22,0x0b,0x4d,0x61,0x67,0x69,0x63,0x31,0x06,0x3a,0x06,0x45,0x54,0x3a,0x0b,0x40,0x70,0x69,0x74,0x63,0x68,0x69,0x69,0x3a,0x0c,0x40,0x76,0x6f,0x6c,0x75,0x6d,0x65,0x69,0x55))
 TeleportPlayer(0,2,33,193,2,0)
 ShowMessageFace("ruka_fc1",0,0,2,1)
 ShowMessage("\\n<Luka>あれ……？　弾き出された……？")
 If(0,4,0)
  ShowMessageFace("alice_fc5",0,0,2,2)
  ShowMessage("\\n<Alice>これは、結界だな……")
  ShowMessage("どうにかせねば、入ることはできんぞ。")
  0()
 EndIf()
 If(0,5,0)
  ShowMessageFace("iriasu_fc4",2,0,2,3)
  ShowMessage("\\n<Ilias>これは結界ですね……")
  ShowMessage("元を絶たねば、中には入れないでしょう。")
  0()
 EndIf()
 EndEventProcessing()
 0()
EndIf()
If(1,1076,0,5,0)
 ChangeSwitch(140,140,0)
 ChangeSwitch(318,318,0)
 205(-1,bytes(0x04,0x08,0x6f,0x3a,0x13,0x52,0x50,0x47,0x3a,0x3a,0x4d,0x6f,0x76,0x65,0x52,0x6f,0x75,0x74,0x65,0x09,0x3a,0x0c,0x40,0x72,0x65,0x70,0x65,0x61,0x74,0x46,0x3a,0x0f,0x40,0x73,0x6b,0x69,0x70,0x70,0x61,0x62,0x6c,0x65,0x46,0x3a,0x0a,0x40,0x77,0x61,0x69,0x74,0x54,0x3a,0x0a,0x40,0x6c,0x69,0x73,0x74,0x5b,0x07,0x6f,0x3a,0x15,0x52,0x50,0x47,0x3a,0x3a,0x4d,0x6f,0x76,0x65,0x43,0x6f,0x6d,0x6d,0x61,0x6e,0x64,0x07,0x3a,0x0a,0x40,0x63,0x6f,0x64,0x65,0x69,0x18,0x3a,0x10,0x40,0x70,0x61,0x72,0x61,0x6d,0x65,0x74,0x65,0x72,0x73,0x5b,0x00,0x6f,0x3b,0x0a,0x07,0x3b,0x0b,0x69,0x00,0x3b,0x0c,0x5b,0x00))
 505(bytes(0x04,0x08,0x6f,0x3a,0x15,0x52,0x50,0x47,0x3a,0x3a,0x4d,0x6f,0x76,0x65,0x43,0x6f,0x6d,0x6d,0x61,0x6e,0x64,0x07,0x3a,0x0a,0x40,0x63,0x6f,0x64,0x65,0x69,0x18,0x3a,0x10,0x40,0x70,0x61,0x72,0x61,0x6d,0x65,0x74,0x65,0x72,0x73,0x5b,0x00))
 PictureDisplay(5,"80_sirousagi_st01",0,0,0,0,100,100,0,0)
 PictureMove(5,null,0,0,0,0,100,100,255,0,30,true)
 ShowMessageFace("sirousagi_fc1",0,0,2,4)
 ShowMessage("\\n<白兎>ようやく、ここまで来たね……")
 ShowMessage("それじゃあ、答えまで導いてあげる。")
 If(0,4,0)
  ShowMessageFace("alice_fc5",2,0,2,5)
  ShowMessage("\\n<Alice>勿体ぶらず、教えてもらおう。")
  ShowMessage("貴様が答えと言う、謎の核心をな。")
  0()
 EndIf()
 If(0,5,0)
  ShowMessageFace("iriasu_fc4",7,0,2,6)
  ShowMessage("\\n<Ilias>勿体ぶらず、教えてもらいましょう。")
  ShowMessage("あなたが答えと言う、謎の核心を……")
  0()
 EndIf()
 ShowMessageFace("sirousagi_fc1",0,0,2,7)
 ShowMessage("\\n<白兎>……ちょっと待って、そろそろ波が来るよ。")
 ShowMessageFace("ruka_fc1",0,0,2,8)
 ShowMessage("\\n<Luka>波って――")
 PictureClear(5)
 Wait(30)
 250(bytes(0x04,0x08,0x6f,0x3a,0x0c,0x52,0x50,0x47,0x3a,0x3a,0x53,0x45,0x08,0x3a,0x0a,0x40,0x6e,0x61,0x6d,0x65,0x49,0x22,0x0d,0x6d,0x6f,0x6e,0x5f,0x62,0x6f,0x6d,0x31,0x06,0x3a,0x06,0x45,0x54,0x3a,0x0b,0x40,0x70,0x69,0x74,0x63,0x68,0x69,0x69,0x3a,0x0c,0x40,0x76,0x6f,0x6c,0x75,0x6d,0x65,0x69,0x69))
 225(7,7,120,true)
 PictureDisplay(1,"sys_noise",0,0,0,0,100,100,0,0)
 PictureMove(1,null,0,0,0,0,100,100,255,0,60,true)
 ChangeVariable(21,21,0,0,136)
 ChangeVariable(22,22,0,3,5,-1,0)
 ChangeVariable(23,23,0,3,5,-1,1)
 TeleportPlayer(1,21,22,23,0,2)
 241(bytes(0x04,0x08,0x6f,0x3a,0x0d,0x52,0x50,0x47,0x3a,0x3a,0x42,0x47,0x4d,0x08,0x3a,0x0a,0x40,0x6e,0x61,0x6d,0x65,0x49,0x22,0x14,0x64,0x75,0x6e,0x67,0x65,0x6f,0x6e,0x5f,0x73,0x69,0x6e,0x64,0x65,0x6e,0x31,0x06,0x3a,0x06,0x45,0x54,0x3a,0x0c,0x40,0x76,0x6f,0x6c,0x75,0x6d,0x65,0x69,0x69,0x3a,0x0b,0x40,0x70,0x69,0x74,0x63,0x68,0x69,0x69))
 PictureMove(1,null,0,0,0,0,100,100,0,0,60,true)
 PictureClear(1)
 EndEventProcessing()
 0()
EndIf()
0()
